idx,idm,errors
0,727,0.00045891744589921787
1,682,0.00032345364320163894
2,683,3.7037081201803946e-05
3,733,1.0771138189388769e-05
4,808,0.00033677533652257146
5,728,0.000427965002188898
6,810,0.00041205794117403494
7,812,0.0003069116723861999
8,731,0.00012734861202823801
9,857,3.075599670410156e-05
10,815,0.00038164151689565464
11,769,0.00035444367979313457
12,818,0.0003088794357135967
13,914,3.262416550273385e-05
14,866,0.00019968548792740089
15,959,2.054830687181019e-05
16,860,6.211524690924286e-05
17,957,0.0004425650614275566
18,863,0.00024461702645134744
19,864,0.00025941653339786445
20,915,4.825488379650437e-05
21,1013,0.00033677533652257146
22,952,0.00010163233406763394
23,1058,0.0003207129591809153
24,1060,4.4055857011324724e-05
25,1011,0.00047505259362937456
26,1109,0.0003088800798217359
27,1055,0.00025958167012513176
28,1114,0.00045817482137109575
29,1014,0.00032189722253894633
30,1113,0.0002915285050823478
31,1016,0.00032248296416946385
32,1152,0.0003541806496335642
33,1208,0.0004283516068774315
34,1063,0.00036860746039782855
35,1156,0.0004595216136317486
36,1117,0.00014359707769315744
37,1108,0.00017303605137966645
38,1242,0.0004736913385713086
39,1211,0.00018533958625906283
40,1151,0.00021364220465178318
41,1291,0.00020132243265420964
42,1209,0.00039958393837453
43,1246,0.0003526319796455019
44,1294,0.0003054700304589091
45,1295,0.00018455850386114918
