idx,idm,errors
0,372,5.038718756642252e-05
1,373,1.3427856293038104e-05
2,371,0.00016997773319464627
3,376,0.0003078023561595352
4,377,0.000305899492088962
5,423,0.0004596829884267603
6,422,0.0002899232724197347
7,424,7.651416467107472e-05
8,432,0.0002631104306563087
9,476,2.750818384066115e-05
10,425,0.0004733501879745354
11,480,0.00030548110232125864
12,475,0.00039752092453560574
13,558,0.00030758408518418714
14,474,0.00035214401937928435
15,557,8.03017700862747e-05
16,517,0.0003516979578048307
17,478,0.00041497875224220015
18,565,0.0003673518929363716
19,525,4.130907205689153e-05
20,561,0.0003993664923598729
21,559,0.0004906207737184042
22,518,0.00012537825339923702
23,566,0.00018375561942889578
24,607,7.301060503167421e-05
25,649,0.00025939942091046
26,562,0.00013990175147268055
27,653,0.0004584571061518077
28,647,0.00035212156097475737
29,648,0.0003816503603750506
30,701,0.0004592159697849735
31,703,4.833727225293803e-05
32,654,0.00025942746179076086
33,645,7.689359567757127e-05
34,695,0.0002477663493809588
35,740,0.00044253468413137494
36,697,0.00030804718985668955
37,651,0.0004892398042045067
38,699,0.00010695644535192236
39,778,0.0001453845138561974
40,696,0.0002757802246169519
41,779,0.0001411856769603676
42,780,0.00035114071084883314
43,877,8.904511021653715e-05
44,781,0.00014359732510143866
45,827,3.844384073399806e-06
46,742,0.0004433098570638251
47,785,0.00020135419454049737
48,880,0.00045782823901993847
49,825,0.00019952772133391988
50,829,0.00024805250464174697
51,876,0.00036634285110629945
52,965,0.0001268099989040578
53,969,0.00035103507190382586
54,878,0.00046004680048238695
55,925,0.0004294924589058627
56,927,0.00039805138512021297
57,928,0.000384441068827434
58,924,9.444746706497152e-05
59,564,0.000306073838080759
60,787,0.0004731726504126382
