idx,idm,errors
0,16013,1.673691632727074e-05
1,16010,5.6645364398641575e-05
2,16014,4.656431433003884e-05
3,16026,5.006563090670276e-05
4,16107,6.678444442753448e-05
5,16027,4.7492597953753405e-05
6,16085,4.281987060669641e-05
7,16012,4.099690486946998e-05
8,16106,4.464988674438334e-05
9,16148,3.578503234728569e-05
10,16189,4.977412548332172e-05
11,16011,7.287968892876739e-05
12,16203,5.816631577292216e-05
13,16145,5.292677660183566e-05
14,16204,3.395937693551036e-05
15,16158,4.38690185546875e-05
16,16186,3.833723305176121e-05
17,16140,6.629237059395892e-05
18,16234,4.5457364226581514e-05
19,16231,4.8889181587128816e-05
20,16141,4.93704952451507e-05
21,16194,3.7034011533637236e-05
22,16249,2.886342229923545e-05
23,16248,4.187488250751524e-05
24,16321,6.043617064573234e-05
25,16230,6.236184205731131e-05
26,16325,6.974222297203912e-05
27,16331,4.718519926778023e-05
28,16280,7.126442601115954e-05
29,16322,5.518141228290341e-05
30,16369,4.9222900011306534e-05
31,16332,6.034581001112509e-05
32,16370,2.328215716501942e-05
33,16324,4.415831338039484e-05
34,16410,5.2892397399376096e-05
35,16460,3.1972989300232336e-05
36,16143,4.489365499854973e-05
37,16147,6.115424935104904e-05
38,16105,3.5835827308761474e-05
39,16146,5.891206822006417e-05
40,16327,1.7993891014207083e-05
41,16281,5.888118377850773e-05
