solid Visualization Toolkit generated SLA File
 facet normal -1 0 0
  outer loop
   vertex -0.5 -0.05 -1.1
   vertex -0.5 -0.05 0.2
   vertex -0.5 0 -1.1
  endloop
 endfacet
 facet normal 1 0 0
  outer loop
   vertex -0.5 0 0.2
   vertex -0.5 0 -1.1
   vertex -0.5 -0.05 0.2
  endloop
 endfacet
 facet normal -1 0 0
  outer loop
   vertex 2.2 -0.05 -1.1
   vertex 2.2 0 -1.1
   vertex 2.2 -0.05 0.2
  endloop
 endfacet
 facet normal 1 0 0
  outer loop
   vertex 2.2 0 0.2
   vertex 2.2 -0.05 0.2
   vertex 2.2 0 -1.1
  endloop
 endfacet
 facet normal -1 0 0
  outer loop
   vertex -0.5 -0.05 -1.1
   vertex 2.2 -0.05 -1.1
   vertex -0.5 -0.05 0.2
  endloop
 endfacet
 facet normal 1 0 0
  outer loop
   vertex 2.2 -0.05 0.2
   vertex -0.5 -0.05 0.2
   vertex 2.2 -0.05 -1.1
  endloop
 endfacet
 facet normal -1 0 0
  outer loop
   vertex -0.5 0 -1.1
   vertex -0.5 0 0.2
   vertex 2.2 0 -1.1
  endloop
 endfacet
 facet normal 1 0 0
  outer loop
   vertex 2.2 0 0.2
   vertex 2.2 0 -1.1
   vertex -0.5 0 0.2
  endloop
 endfacet
 facet normal -1 0 0
  outer loop
   vertex -0.5 -0.05 -1.1
   vertex -0.5 0 -1.1
   vertex 2.2 -0.05 -1.1
  endloop
 endfacet
 facet normal 1 0 0
  outer loop
   vertex 2.2 0 -1.1
   vertex 2.2 -0.05 -1.1
   vertex -0.5 0 -1.1
  endloop
 endfacet
 facet normal -1 0 0
  outer loop
   vertex -0.5 -0.05 0.2
   vertex 2.2 -0.05 0.2
   vertex -0.5 0 0.2
  endloop
 endfacet
 facet normal 1 0 0
  outer loop
   vertex 2.2 0 0.2
   vertex -0.5 0 0.2
   vertex 2.2 -0.05 0.2
  endloop
 endfacet
endsolid
