solid Visualization Toolkit generated SLA File
 facet normal 0.947864 0.251902 -0.195188
  outer loop
   vertex -0.003552 -0.123933 0.017663
   vertex -0.001797 -0.131214 0.016789
   vertex -0.004 -0.12485 0.014304
  endloop
 endfacet
 facet normal 0.821253 0.430503 0.374448
  outer loop
   vertex -0.001078 -0.131307 0.015319
   vertex -0.004 -0.12485 0.014304
   vertex -0.001797 -0.131214 0.016789
  endloop
 endfacet
 facet normal 0.947864 0.251902 -0.195188
  outer loop
   vertex -0.004372 -0.116856 0.017299
   vertex -0.003552 -0.123933 0.017663
   vertex -0.006408 -0.11844 0.013974
  endloop
 endfacet
 facet normal 0.821253 0.430503 0.374448
  outer loop
   vertex -0.004 -0.12485 0.014304
   vertex -0.006408 -0.11844 0.013974
   vertex -0.003552 -0.123933 0.017663
  endloop
 endfacet
 facet normal 0.890252 0.163558 0.425087
  outer loop
   vertex -0.001078 -0.131307 0.015319
   vertex -0.005802 -0.128071 0.014877
   vertex -0.004 -0.12485 0.014304
  endloop
 endfacet
 facet normal 0.900966 0.372827 -0.221945
  outer loop
   vertex -0.006888 -0.121588 0.013536
   vertex -0.004 -0.12485 0.014304
   vertex -0.005802 -0.128071 0.014877
  endloop
 endfacet
 facet normal 0.890252 0.163558 0.425087
  outer loop
   vertex -0.004 -0.12485 0.014304
   vertex -0.006888 -0.121588 0.013536
   vertex -0.006408 -0.11844 0.013974
  endloop
 endfacet
 facet normal 0.900966 0.372827 -0.221945
  outer loop
   vertex -0.006888 -0.121588 0.013536
   vertex -0.007265 -0.115002 0.012436
   vertex -0.006408 -0.11844 0.013974
  endloop
 endfacet
 facet normal 0.821253 0.430503 0.374448
  outer loop
   vertex -0.001797 -0.131214 0.016789
   vertex -0.003552 -0.123933 0.017663
   vertex -0.003781 -0.129287 0.019583
  endloop
 endfacet
 facet normal 0.947864 0.251902 -0.195188
  outer loop
   vertex -0.005806 -0.122827 0.019125
   vertex -0.003781 -0.129287 0.019583
   vertex -0.003552 -0.123933 0.017663
  endloop
 endfacet
 facet normal 0.821253 0.430503 0.374448
  outer loop
   vertex -0.003552 -0.123933 0.017663
   vertex -0.004372 -0.116856 0.017299
   vertex -0.005806 -0.122827 0.019125
  endloop
 endfacet
 facet normal 0.947864 0.251902 -0.195188
  outer loop
   vertex -0.005744 -0.115715 0.018974
   vertex -0.005806 -0.122827 0.019125
   vertex -0.004372 -0.116856 0.017299
  endloop
 endfacet
 facet normal 0.67795453004333894 -0.28467207581229503 0.67774587010651299
  outer loop
   vertex -0.0017969999462366104 -0.13121399283409119 0.016789000481367111
   vertex -0.0037809999193996191 -0.1292870044708252 0.019582999870181084
   vertex -0.0065120002254843712 -0.13514100015163422 0.019856000319123268
  endloop
 endfacet
 facet normal 0.72575768684249531 -0.5661701060558203 0.39080326380132979
  outer loop
   vertex -0.0010779999429360032 -0.13130700588226318 0.015318999998271465
   vertex -0.0017969999462366104 -0.13121399283409119 0.016789000481367111
   vertex -0.0065120002254843712 -0.13514100015163422 0.019856000319123268
  endloop
 endfacet
 facet normal 0.59740754724679368 -0.80100691162293203 0.038628357781070211
  outer loop
   vertex -0.0065120002254843712 -0.13514100015163422 0.019856000319123268
   vertex -0.006155999843031168 -0.1350490003824234 0.016257999464869499
   vertex -0.0010779999429360032 -0.13130700588226318 0.015318999998271465
  endloop
 endfacet
 facet normal -0.039805707320643813 -0.19204448820630368 -0.98057861500966981
  outer loop
   vertex -0.006155999843031168 -0.1350490003824234 0.016257999464869499
   vertex -0.0058019999414682388 -0.12807099521160126 0.014876999892294407
   vertex -0.0010779999429360032 -0.13130700588226318 0.015318999998271465
  endloop
 endfacet
 facet normal 0.821253 0.430503 0.374448
  outer loop
   vertex -0.006408 -0.11844 0.013974
   vertex -0.006027 -0.11086 0.013081
   vertex -0.004372 -0.116856 0.017299
  endloop
 endfacet
 facet normal 0.947864 0.251902 -0.195188
  outer loop
   vertex -0.005287 -0.109665 0.016099
   vertex -0.004372 -0.116856 0.017299
   vertex -0.006027 -0.11086 0.013081
  endloop
 endfacet
 facet normal 0.900966 0.372827 -0.221945
  outer loop
   vertex -0.006811 -0.108329 0.011476
   vertex -0.006027 -0.11086 0.013081
   vertex -0.007265 -0.115002 0.012436
  endloop
 endfacet
 facet normal 0.890252 0.163558 0.425087
  outer loop
   vertex -0.007265 -0.115002 0.012436
   vertex -0.006027 -0.11086 0.013081
   vertex -0.006408 -0.11844 0.013974
  endloop
 endfacet
 facet normal 0.947864 0.251902 -0.195188
  outer loop
   vertex -0.006005 -0.108707 0.018811
   vertex -0.005744 -0.115715 0.018974
   vertex -0.005287 -0.109665 0.016099
  endloop
 endfacet
 facet normal 0.821253 0.430503 0.374448
  outer loop
   vertex -0.004372 -0.116856 0.017299
   vertex -0.005287 -0.109665 0.016099
   vertex -0.005744 -0.115715 0.018974
  endloop
 endfacet
 facet normal 0.900966 0.372827 -0.221945
  outer loop
   vertex -0.009643 -0.121387 0.0147
   vertex -0.006888 -0.121588 0.013536
   vertex -0.008326 -0.128087 0.015041
  endloop
 endfacet
 facet normal 0.890252 0.163558 0.425087
  outer loop
   vertex -0.005802 -0.128071 0.014877
   vertex -0.008326 -0.128087 0.015041
   vertex -0.006888 -0.121588 0.013536
  endloop
 endfacet
 facet normal 0.900966 0.372827 -0.221945
  outer loop
   vertex -0.010468 -0.114649 0.013978
   vertex -0.007265 -0.115002 0.012436
   vertex -0.009643 -0.121387 0.0147
  endloop
 endfacet
 facet normal 0.890252 0.163558 0.425087
  outer loop
   vertex -0.006888 -0.121588 0.013536
   vertex -0.009643 -0.121387 0.0147
   vertex -0.007265 -0.115002 0.012436
  endloop
 endfacet
 facet normal -0.062445330671414792 -0.1907136719805462 -0.97965752995474598
  outer loop
   vertex -0.0058019999414682388 -0.12807099521160126 0.014876999892294407
   vertex -0.006155999843031168 -0.1350490003824234 0.016257999464869499
   vertex -0.0083259996026754379 -0.12808699905872345 0.015041000209748745
  endloop
 endfacet
 facet normal 0.900966 0.372827 -0.221945
  outer loop
   vertex -0.010562 -0.107971 0.012452
   vertex -0.006811 -0.108329 0.011476
   vertex -0.010468 -0.114649 0.013978
  endloop
 endfacet
 facet normal 0.890252 0.163558 0.425087
  outer loop
   vertex -0.007265 -0.115002 0.012436
   vertex -0.010468 -0.114649 0.013978
   vertex -0.006811 -0.108329 0.011476
  endloop
 endfacet
 facet normal 0.890252 0.163558 0.425087
  outer loop
   vertex -0.003118 -0.130974 0.02524
   vertex -0.003781 -0.129287 0.019583
   vertex -0.006148 -0.124657 0.024665
  endloop
 endfacet
 facet normal 0.900966 0.372827 -0.221945
  outer loop
   vertex -0.005806 -0.122827 0.019125
   vertex -0.006148 -0.124657 0.024665
   vertex -0.003781 -0.129287 0.019583
  endloop
 endfacet
 facet normal 0.890252 0.163558 0.425087
  outer loop
   vertex -0.006148 -0.124657 0.024665
   vertex -0.005806 -0.122827 0.019125
   vertex -0.008088 -0.117726 0.023638
  endloop
 endfacet
 facet normal 0.900966 0.372827 -0.221945
  outer loop
   vertex -0.005744 -0.115715 0.018974
   vertex -0.008088 -0.117726 0.023638
   vertex -0.005806 -0.122827 0.019125
  endloop
 endfacet
 facet normal 0.947864 0.251902 -0.195188
  outer loop
   vertex -0.003118 -0.130974 0.02524
   vertex -0.007007 -0.135021 0.022413
   vertex -0.003781 -0.129287 0.019583
  endloop
 endfacet
 facet normal 0.821253 0.430503 0.374448
  outer loop
   vertex -0.006512 -0.135141 0.019856
   vertex -0.003781 -0.129287 0.019583
   vertex -0.007007 -0.135021 0.022413
  endloop
 endfacet
 facet normal 0.890252 0.163558 0.425087
  outer loop
   vertex -0.008088 -0.117726 0.023638
   vertex -0.005744 -0.115715 0.018974
   vertex -0.007184 -0.110275 0.023447
  endloop
 endfacet
 facet normal 0.900966 0.372827 -0.221945
  outer loop
   vertex -0.006005 -0.108707 0.018811
   vertex -0.007184 -0.110275 0.023447
   vertex -0.005744 -0.115715 0.018974
  endloop
 endfacet
 facet normal -0.78012 -0.263858 0.567266
  outer loop
   vertex -0.01166 -0.133305 0.022224
   vertex -0.008169 -0.135239 0.017408
   vertex -0.007853 -0.134967 0.024035
  endloop
 endfacet
 facet normal 0.900966 0.372827 -0.221945
  outer loop
   vertex -0.008169 -0.135239 0.017408
   vertex -0.006512 -0.135141 0.019856
   vertex -0.007853 -0.134967 0.024035
  endloop
 endfacet
 facet normal 0.890252 0.163558 0.425087
  outer loop
   vertex -0.007853 -0.134967 0.024035
   vertex -0.006512 -0.135141 0.019856
   vertex -0.007007 -0.135021 0.022413
  endloop
 endfacet
 facet normal 0.084247935096947293 -0.99629741215105361 -0.017139194059644966
  outer loop
   vertex -0.0065120002254843712 -0.13514100015163422 0.019856000319123268
   vertex -0.0081690000370144844 -0.13523900508880615 0.017408000305294991
   vertex -0.006155999843031168 -0.1350490003824234 0.016257999464869499
  endloop
 endfacet
 facet normal 0.947864 0.251902 -0.195188
  outer loop
   vertex -0.008326 -0.128087 0.015041
   vertex -0.006156 -0.135049 0.016258
   vertex -0.010293 -0.128873 0.017709
  endloop
 endfacet
 facet normal 0.821253 0.430503 0.374448
  outer loop
   vertex -0.008169 -0.135239 0.017408
   vertex -0.010293 -0.128873 0.017709
   vertex -0.006156 -0.135049 0.016258
  endloop
 endfacet
 facet normal 0.947864 0.251902 -0.195188
  outer loop
   vertex -0.004836 -0.102355 0.015564
   vertex -0.005287 -0.109665 0.016099
   vertex -0.004851 -0.10317 0.011968
  endloop
 endfacet
 facet normal 0.821253 0.430503 0.374448
  outer loop
   vertex -0.005287 -0.109665 0.016099
   vertex -0.006027 -0.11086 0.013081
   vertex -0.004851 -0.10317 0.011968
  endloop
 endfacet
 facet normal 0.900966 0.372827 -0.221945
  outer loop
   vertex -0.006385 -0.101668 0.010397
   vertex -0.004851 -0.10317 0.011968
   vertex -0.006811 -0.108329 0.011476
  endloop
 endfacet
 facet normal 0.890252 0.163558 0.425087
  outer loop
   vertex -0.006027 -0.11086 0.013081
   vertex -0.006811 -0.108329 0.011476
   vertex -0.004851 -0.10317 0.011968
  endloop
 endfacet
 facet normal 0.947864 0.251902 -0.195188
  outer loop
   vertex -0.00566 -0.101714 0.018625
   vertex -0.006005 -0.108707 0.018811
   vertex -0.004836 -0.102355 0.015564
  endloop
 endfacet
 facet normal 0.821253 0.430503 0.374448
  outer loop
   vertex -0.004836 -0.102355 0.015564
   vertex -0.006005 -0.108707 0.018811
   vertex -0.005287 -0.109665 0.016099
  endloop
 endfacet
 facet normal 0.821253 0.430503 0.374448
  outer loop
   vertex -0.010562 -0.107971 0.012452
   vertex -0.00994 -0.101273 0.010989
   vertex -0.006811 -0.108329 0.011476
  endloop
 endfacet
 facet normal 0.947864 0.251902 -0.195188
  outer loop
   vertex -0.006385 -0.101668 0.010397
   vertex -0.006811 -0.108329 0.011476
   vertex -0.00994 -0.101273 0.010989
  endloop
 endfacet
 facet normal 0.890252 0.163558 0.425087
  outer loop
   vertex -0.007184 -0.110275 0.023447
   vertex -0.006005 -0.108707 0.018811
   vertex -0.007011 -0.102906 0.022914
  endloop
 endfacet
 facet normal 0.900966 0.372827 -0.221945
  outer loop
   vertex -0.00566 -0.101714 0.018625
   vertex -0.007011 -0.102906 0.022914
   vertex -0.006005 -0.108707 0.018811
  endloop
 endfacet
 facet normal 0.821253 0.430503 0.374448
  outer loop
   vertex -0.010293 -0.128873 0.017709
   vertex -0.010912 -0.12191 0.017614
   vertex -0.008326 -0.128087 0.015041
  endloop
 endfacet
 facet normal 0.947864 0.251902 -0.195188
  outer loop
   vertex -0.010912 -0.12191 0.017614
   vertex -0.009643 -0.121387 0.0147
   vertex -0.008326 -0.128087 0.015041
  endloop
 endfacet
 facet normal 0.947864 0.251902 -0.195188
  outer loop
   vertex -0.010468 -0.114649 0.013978
   vertex -0.009643 -0.121387 0.0147
   vertex -0.012154 -0.115139 0.017194
  endloop
 endfacet
 facet normal 0.821253 0.430503 0.374448
  outer loop
   vertex -0.010912 -0.12191 0.017614
   vertex -0.012154 -0.115139 0.017194
   vertex -0.009643 -0.121387 0.0147
  endloop
 endfacet
 facet normal 0.947864 0.251902 -0.195188
  outer loop
   vertex -0.010562 -0.107971 0.012452
   vertex -0.010468 -0.114649 0.013978
   vertex -0.012777 -0.108319 0.01641
  endloop
 endfacet
 facet normal 0.821253 0.430503 0.374448
  outer loop
   vertex -0.012777 -0.108319 0.01641
   vertex -0.010468 -0.114649 0.013978
   vertex -0.012154 -0.115139 0.017194
  endloop
 endfacet
 facet normal 0.947864 0.251902 -0.195188
  outer loop
   vertex -0.00994 -0.101273 0.010989
   vertex -0.010562 -0.107971 0.012452
   vertex -0.012838 -0.101412 0.015564
  endloop
 endfacet
 facet normal 0.821253 0.430503 0.374448
  outer loop
   vertex -0.012777 -0.108319 0.01641
   vertex -0.012838 -0.101412 0.015564
   vertex -0.010562 -0.107971 0.012452
  endloop
 endfacet
 facet normal 0.821253 0.430503 0.374448
  outer loop
   vertex -0.003118 -0.130974 0.02524
   vertex -0.006148 -0.124657 0.024665
   vertex -0.008114 -0.128287 0.024287
  endloop
 endfacet
 facet normal 0.947864 0.251902 -0.195188
  outer loop
   vertex -0.008568 -0.121621 0.023812
   vertex -0.008114 -0.128287 0.024287
   vertex -0.006148 -0.124657 0.024665
  endloop
 endfacet
 facet normal 0.821253 0.430503 0.374448
  outer loop
   vertex -0.006148 -0.124657 0.024665
   vertex -0.008088 -0.117726 0.023638
   vertex -0.008568 -0.121621 0.023812
  endloop
 endfacet
 facet normal 0.947864 0.251902 -0.195188
  outer loop
   vertex -0.008568 -0.121621 0.023812
   vertex -0.008088 -0.117726 0.023638
   vertex -0.008935 -0.114966 0.023331
  endloop
 endfacet
 facet normal 0.56234183728152076 -0.76301781282559 0.31870907635914086
  outer loop
   vertex -0.0031179999932646751 -0.13097399473190308 0.025240000337362289
   vertex -0.0078530004248023033 -0.13496699929237366 0.024034999310970306
   vertex -0.0070070000365376472 -0.13502100110054016 0.022413000464439392
  endloop
 endfacet
 facet normal -0.21051709768491733 -0.045065385512634268 0.97655090118790877
  outer loop
   vertex -0.0031179999932646751 -0.13097399473190308 0.025240000337362289
   vertex -0.0081139998510479927 -0.12828700244426727 0.024287000298500061
   vertex -0.0078530004248023033 -0.13496699929237366 0.024034999310970306
  endloop
 endfacet
 facet normal 0.947864 0.251902 -0.195188
  outer loop
   vertex -0.009465 -0.108258 0.022853
   vertex -0.008935 -0.114966 0.023331
   vertex -0.007184 -0.110275 0.023447
  endloop
 endfacet
 facet normal 0.821253 0.430503 0.374448
  outer loop
   vertex -0.007184 -0.110275 0.023447
   vertex -0.008935 -0.114966 0.023331
   vertex -0.008088 -0.117726 0.023638
  endloop
 endfacet
 facet normal 0.947864 0.251902 -0.195188
  outer loop
   vertex -0.009705 -0.101552 0.022507
   vertex -0.009465 -0.108258 0.022853
   vertex -0.007011 -0.102906 0.022914
  endloop
 endfacet
 facet normal 0.821253 0.430503 0.374448
  outer loop
   vertex -0.009465 -0.108258 0.022853
   vertex -0.007184 -0.110275 0.023447
   vertex -0.007011 -0.102906 0.022914
  endloop
 endfacet
 facet normal 0.890252 0.163558 0.425087
  outer loop
   vertex -0.008169 -0.135239 0.017408
   vertex -0.01166 -0.133305 0.022224
   vertex -0.010293 -0.128873 0.017709
  endloop
 endfacet
 facet normal 0.900966 0.372827 -0.221945
  outer loop
   vertex -0.010293 -0.128873 0.017709
   vertex -0.01166 -0.133305 0.022224
   vertex -0.010601 -0.126976 0.021484
  endloop
 endfacet
 facet normal 0.821253 0.430503 0.374448
  outer loop
   vertex -0.007853 -0.134967 0.024035
   vertex -0.008114 -0.128287 0.024287
   vertex -0.01166 -0.133305 0.022224
  endloop
 endfacet
 facet normal 0.947864 0.251902 -0.195188
  outer loop
   vertex -0.01166 -0.133305 0.022224
   vertex -0.008114 -0.128287 0.024287
   vertex -0.010601 -0.126976 0.021484
  endloop
 endfacet
 facet normal 0.900966 0.372827 -0.221945
  outer loop
   vertex -0.01104 -0.120602 0.021573
   vertex -0.010912 -0.12191 0.017614
   vertex -0.010601 -0.126976 0.021484
  endloop
 endfacet
 facet normal 0.890252 0.163558 0.425087
  outer loop
   vertex -0.010601 -0.126976 0.021484
   vertex -0.010912 -0.12191 0.017614
   vertex -0.010293 -0.128873 0.017709
  endloop
 endfacet
 facet normal 0.821253 0.430503 0.374448
  outer loop
   vertex -0.004851 -0.10317 0.011968
   vertex -0.003317 -0.09597 0.010964
   vertex -0.004836 -0.102355 0.015564
  endloop
 endfacet
 facet normal 0.947864 0.251902 -0.195188
  outer loop
   vertex -0.00325 -0.095239 0.014288
   vertex -0.004836 -0.102355 0.015564
   vertex -0.003317 -0.09597 0.010964
  endloop
 endfacet
 facet normal 0.900966 0.372827 -0.221945
  outer loop
   vertex -0.005541 -0.09517 0.008888
   vertex -0.003317 -0.09597 0.010964
   vertex -0.006385 -0.101668 0.010397
  endloop
 endfacet
 facet normal 0.890252 0.163558 0.425087
  outer loop
   vertex -0.004851 -0.10317 0.011968
   vertex -0.006385 -0.101668 0.010397
   vertex -0.003317 -0.09597 0.010964
  endloop
 endfacet
 facet normal 0.900966 0.372827 -0.221945
  outer loop
   vertex -0.00325 -0.095239 0.014288
   vertex -0.00437 -0.09473 0.018264
   vertex -0.004836 -0.102355 0.015564
  endloop
 endfacet
 facet normal 0.890252 0.163558 0.425087
  outer loop
   vertex -0.00566 -0.101714 0.018625
   vertex -0.004836 -0.102355 0.015564
   vertex -0.00437 -0.09473 0.018264
  endloop
 endfacet
 facet normal 0.947864 0.251902 -0.195188
  outer loop
   vertex -0.005541 -0.09517 0.008888
   vertex -0.006385 -0.101668 0.010397
   vertex -0.009281 -0.094582 0.009617
  endloop
 endfacet
 facet normal 0.821253 0.430503 0.374448
  outer loop
   vertex -0.00994 -0.101273 0.010989
   vertex -0.009281 -0.094582 0.009617
   vertex -0.006385 -0.101668 0.010397
  endloop
 endfacet
 facet normal 0.890252 0.163558 0.425087
  outer loop
   vertex -0.007011 -0.102906 0.022914
   vertex -0.00566 -0.101714 0.018625
   vertex -0.006032 -0.095481 0.022162
  endloop
 endfacet
 facet normal 0.900966 0.372827 -0.221945
  outer loop
   vertex -0.00437 -0.09473 0.018264
   vertex -0.006032 -0.095481 0.022162
   vertex -0.00566 -0.101714 0.018625
  endloop
 endfacet
 facet normal 0.947864 0.251902 -0.195188
  outer loop
   vertex -0.009281 -0.094582 0.009617
   vertex -0.00994 -0.101273 0.010989
   vertex -0.012961 -0.094525 0.014765
  endloop
 endfacet
 facet normal 0.821253 0.430503 0.374448
  outer loop
   vertex -0.012838 -0.101412 0.015564
   vertex -0.012961 -0.094525 0.014765
   vertex -0.00994 -0.101273 0.010989
  endloop
 endfacet
 facet normal 0.821253 0.430503 0.374448
  outer loop
   vertex -0.007011 -0.102906 0.022914
   vertex -0.006032 -0.095481 0.022162
   vertex -0.009705 -0.101552 0.022507
  endloop
 endfacet
 facet normal 0.947864 0.251902 -0.195188
  outer loop
   vertex -0.008282 -0.095057 0.022888
   vertex -0.009705 -0.101552 0.022507
   vertex -0.006032 -0.095481 0.022162
  endloop
 endfacet
 facet normal 0.900966 0.372827 -0.221945
  outer loop
   vertex -0.01195 -0.114219 0.021523
   vertex -0.012154 -0.115139 0.017194
   vertex -0.01104 -0.120602 0.021573
  endloop
 endfacet
 facet normal 0.890252 0.163558 0.425087
  outer loop
   vertex -0.010912 -0.12191 0.017614
   vertex -0.01104 -0.120602 0.021573
   vertex -0.012154 -0.115139 0.017194
  endloop
 endfacet
 facet normal 0.890252 0.163558 0.425087
  outer loop
   vertex -0.012154 -0.115139 0.017194
   vertex -0.01195 -0.114219 0.021523
   vertex -0.012777 -0.108319 0.01641
  endloop
 endfacet
 facet normal 0.900966 0.372827 -0.221945
  outer loop
   vertex -0.01249 -0.107842 0.020866
   vertex -0.012777 -0.108319 0.01641
   vertex -0.01195 -0.114219 0.021523
  endloop
 endfacet
 facet normal 0.947864 0.251902 -0.195188
  outer loop
   vertex -0.012838 -0.101412 0.015564
   vertex -0.012777 -0.108319 0.01641
   vertex -0.01248 -0.101439 0.020209
  endloop
 endfacet
 facet normal 0.821253 0.430503 0.374448
  outer loop
   vertex -0.01249 -0.107842 0.020866
   vertex -0.01248 -0.101439 0.020209
   vertex -0.012777 -0.108319 0.01641
  endloop
 endfacet
 facet normal 0.947864 0.251902 -0.195188
  outer loop
   vertex -0.012961 -0.094525 0.014765
   vertex -0.012838 -0.101412 0.015564
   vertex -0.012501 -0.095018 0.019593
  endloop
 endfacet
 facet normal 0.821253 0.430503 0.374448
  outer loop
   vertex -0.01248 -0.101439 0.020209
   vertex -0.012501 -0.095018 0.019593
   vertex -0.012838 -0.101412 0.015564
  endloop
 endfacet
 facet normal 0.821253 0.430503 0.374448
  outer loop
   vertex -0.008114 -0.128287 0.024287
   vertex -0.008568 -0.121621 0.023812
   vertex -0.010601 -0.126976 0.021484
  endloop
 endfacet
 facet normal 0.947864 0.251902 -0.195188
  outer loop
   vertex -0.01104 -0.120602 0.021573
   vertex -0.010601 -0.126976 0.021484
   vertex -0.008568 -0.121621 0.023812
  endloop
 endfacet
 facet normal 0.947864 0.251902 -0.195188
  outer loop
   vertex -0.01195 -0.114219 0.021523
   vertex -0.01104 -0.120602 0.021573
   vertex -0.008935 -0.114966 0.023331
  endloop
 endfacet
 facet normal 0.821253 0.430503 0.374448
  outer loop
   vertex -0.008568 -0.121621 0.023812
   vertex -0.008935 -0.114966 0.023331
   vertex -0.01104 -0.120602 0.021573
  endloop
 endfacet
 facet normal 0.947864 0.251902 -0.195188
  outer loop
   vertex -0.01249 -0.107842 0.020866
   vertex -0.01195 -0.114219 0.021523
   vertex -0.009465 -0.108258 0.022853
  endloop
 endfacet
 facet normal 0.821253 0.430503 0.374448
  outer loop
   vertex -0.008935 -0.114966 0.023331
   vertex -0.009465 -0.108258 0.022853
   vertex -0.01195 -0.114219 0.021523
  endloop
 endfacet
 facet normal 0.821253 0.430503 0.374448
  outer loop
   vertex -0.009465 -0.108258 0.022853
   vertex -0.009705 -0.101552 0.022507
   vertex -0.01249 -0.107842 0.020866
  endloop
 endfacet
 facet normal 0.947864 0.251902 -0.195188
  outer loop
   vertex -0.009705 -0.101552 0.022507
   vertex -0.01248 -0.101439 0.020209
   vertex -0.01249 -0.107842 0.020866
  endloop
 endfacet
 facet normal 0.900966 0.372827 -0.221945
  outer loop
   vertex -0.008282 -0.095057 0.022888
   vertex -0.012501 -0.095018 0.019593
   vertex -0.009705 -0.101552 0.022507
  endloop
 endfacet
 facet normal 0.890252 0.163558 0.425087
  outer loop
   vertex -0.01248 -0.101439 0.020209
   vertex -0.009705 -0.101552 0.022507
   vertex -0.012501 -0.095018 0.019593
  endloop
 endfacet
 facet normal 0.821253 0.430503 0.374448
  outer loop
   vertex -0.003317 -0.09597 0.010964
   vertex -0.000469 -0.089222 0.010515
   vertex -0.00325 -0.095239 0.014288
  endloop
 endfacet
 facet normal 0.947864 0.251902 -0.195188
  outer loop
   vertex 0.000364 -0.089058 0.013601
   vertex -0.00325 -0.095239 0.014288
   vertex -0.000469 -0.089222 0.010515
  endloop
 endfacet
 facet normal 0.947864 0.251902 -0.195188
  outer loop
   vertex -0.000469 -0.089222 0.010515
   vertex -0.003317 -0.09597 0.010964
   vertex -0.003699 -0.088876 0.007664
  endloop
 endfacet
 facet normal 0.821253 0.430503 0.374448
  outer loop
   vertex -0.005541 -0.09517 0.008888
   vertex -0.003699 -0.088876 0.007664
   vertex -0.003317 -0.09597 0.010964
  endloop
 endfacet
 facet normal 0.900966 0.372827 -0.221945
  outer loop
   vertex 0.000364 -0.089058 0.013601
   vertex -0.000277 -0.089434 0.018663
   vertex -0.00325 -0.095239 0.014288
  endloop
 endfacet
 facet normal 0.890252 0.163558 0.425087
  outer loop
   vertex -0.00437 -0.09473 0.018264
   vertex -0.00325 -0.095239 0.014288
   vertex -0.000277 -0.089434 0.018663
  endloop
 endfacet
 facet normal 0.900966 0.372827 -0.221945
  outer loop
   vertex -0.009814 -0.088052 0.007647
   vertex -0.003699 -0.088876 0.007664
   vertex -0.009281 -0.094582 0.009617
  endloop
 endfacet
 facet normal 0.890252 0.163558 0.425087
  outer loop
   vertex -0.005541 -0.09517 0.008888
   vertex -0.009281 -0.094582 0.009617
   vertex -0.003699 -0.088876 0.007664
  endloop
 endfacet
 facet normal 0.900966 0.372827 -0.221945
  outer loop
   vertex -0.000277 -0.089434 0.018663
   vertex -0.002489 -0.08926 0.023103
   vertex -0.00437 -0.09473 0.018264
  endloop
 endfacet
 facet normal 0.890252 0.163558 0.425087
  outer loop
   vertex -0.006032 -0.095481 0.022162
   vertex -0.00437 -0.09473 0.018264
   vertex -0.002489 -0.08926 0.023103
  endloop
 endfacet
 facet normal 0.947864 0.251902 -0.195188
  outer loop
   vertex -0.009814 -0.088052 0.007647
   vertex -0.009281 -0.094582 0.009617
   vertex -0.012882 -0.087692 0.013579
  endloop
 endfacet
 facet normal 0.821253 0.430503 0.374448
  outer loop
   vertex -0.012882 -0.087692 0.013579
   vertex -0.009281 -0.094582 0.009617
   vertex -0.012961 -0.094525 0.014765
  endloop
 endfacet
 facet normal 0.900966 0.372827 -0.221945
  outer loop
   vertex -0.002489 -0.08926 0.023103
   vertex -0.007788 -0.0885 0.023935
   vertex -0.006032 -0.095481 0.022162
  endloop
 endfacet
 facet normal 0.890252 0.163558 0.425087
  outer loop
   vertex -0.008282 -0.095057 0.022888
   vertex -0.006032 -0.095481 0.022162
   vertex -0.007788 -0.0885 0.023935
  endloop
 endfacet
 facet normal 0.947864 0.251902 -0.195188
  outer loop
   vertex -0.012882 -0.087692 0.013579
   vertex -0.012961 -0.094525 0.014765
   vertex -0.012823 -0.088622 0.018971
  endloop
 endfacet
 facet normal 0.821253 0.430503 0.374448
  outer loop
   vertex -0.012501 -0.095018 0.019593
   vertex -0.012823 -0.088622 0.018971
   vertex -0.012961 -0.094525 0.014765
  endloop
 endfacet
 facet normal 0.900966 0.372827 -0.221945
  outer loop
   vertex -0.007788 -0.0885 0.023935
   vertex -0.012823 -0.088622 0.018971
   vertex -0.008282 -0.095057 0.022888
  endloop
 endfacet
 facet normal 0.890252 0.163558 0.425087
  outer loop
   vertex -0.012501 -0.095018 0.019593
   vertex -0.008282 -0.095057 0.022888
   vertex -0.012823 -0.088622 0.018971
  endloop
 endfacet
 facet normal 0.900966 0.372827 -0.221945
  outer loop
   vertex -0.001005 -0.082017 0.008905
   vertex 0.000968 -0.082185 0.012282
   vertex -0.000469 -0.089222 0.010515
  endloop
 endfacet
 facet normal 0.890252 0.163558 0.425087
  outer loop
   vertex 0.000364 -0.089058 0.013601
   vertex -0.000469 -0.089222 0.010515
   vertex 0.000968 -0.082185 0.012282
  endloop
 endfacet
 facet normal 0.64979809785629339 -0.11940135729736805 -0.75067019915398858
  outer loop
   vertex -0.0010049999691545963 -0.082016997039318085 0.0089050000533461571
   vertex -0.00046899999142624438 -0.089221999049186707 0.010514999739825726
   vertex -0.0036989999935030937 -0.088876001536846161 0.0076640001498162746
  endloop
 endfacet
 facet normal 0.900966 0.372827 -0.221945
  outer loop
   vertex 0.000968 -0.082185 0.012282
   vertex 3.4e-05 -0.082483 0.018022
   vertex 0.000364 -0.089058 0.013601
  endloop
 endfacet
 facet normal 0.890252 0.163558 0.425087
  outer loop
   vertex -0.000277 -0.089434 0.018663
   vertex 0.000364 -0.089058 0.013601
   vertex 3.4e-05 -0.082483 0.018022
  endloop
 endfacet
 facet normal 0.947864 0.251902 -0.195188
  outer loop
   vertex -0.001005 -0.082017 0.008905
   vertex -0.003699 -0.088876 0.007664
   vertex -0.008596 -0.081443 0.008473
  endloop
 endfacet
 facet normal 0.821253 0.430503 0.374448
  outer loop
   vertex -0.009814 -0.088052 0.007647
   vertex -0.008596 -0.081443 0.008473
   vertex -0.003699 -0.088876 0.007664
  endloop
 endfacet
 facet normal 0.890252 0.163558 0.425087
  outer loop
   vertex -0.002489 -0.08926 0.023103
   vertex -0.000277 -0.089434 0.018663
   vertex -0.001452 -0.082063 0.022546
  endloop
 endfacet
 facet normal 0.900966 0.372827 -0.221945
  outer loop
   vertex 3.4e-05 -0.082483 0.018022
   vertex -0.001452 -0.082063 0.022546
   vertex -0.000277 -0.089434 0.018663
  endloop
 endfacet
 facet normal 0.890252 0.163558 0.425087
  outer loop
   vertex -0.009814 -0.088052 0.007647
   vertex -0.012882 -0.087692 0.013579
   vertex -0.008596 -0.081443 0.008473
  endloop
 endfacet
 facet normal 0.900966 0.372827 -0.221945
  outer loop
   vertex -0.011647 -0.080899 0.014077
   vertex -0.008596 -0.081443 0.008473
   vertex -0.012882 -0.087692 0.013579
  endloop
 endfacet
 facet normal 0.900966 0.372827 -0.221945
  outer loop
   vertex -0.001452 -0.082063 0.022546
   vertex -0.006952 -0.081988 0.023327
   vertex -0.002489 -0.08926 0.023103
  endloop
 endfacet
 facet normal 0.890252 0.163558 0.425087
  outer loop
   vertex -0.007788 -0.0885 0.023935
   vertex -0.002489 -0.08926 0.023103
   vertex -0.006952 -0.081988 0.023327
  endloop
 endfacet
 facet normal 0.821253 0.430503 0.374448
  outer loop
   vertex -0.012823 -0.088622 0.018971
   vertex -0.011702 -0.082289 0.019042
   vertex -0.012882 -0.087692 0.013579
  endloop
 endfacet
 facet normal 0.947864 0.251902 -0.195188
  outer loop
   vertex -0.011702 -0.082289 0.019042
   vertex -0.011647 -0.080899 0.014077
   vertex -0.012882 -0.087692 0.013579
  endloop
 endfacet
 facet normal 0.890252 0.163558 0.425087
  outer loop
   vertex -0.012823 -0.088622 0.018971
   vertex -0.007788 -0.0885 0.023935
   vertex -0.011702 -0.082289 0.019042
  endloop
 endfacet
 facet normal 0.900966 0.372827 -0.221945
  outer loop
   vertex -0.006952 -0.081988 0.023327
   vertex -0.011702 -0.082289 0.019042
   vertex -0.007788 -0.0885 0.023935
  endloop
 endfacet
 facet normal 0.061560195796256843 0.97495621154453538 0.2137071076596514
  outer loop
   vertex -0.0010049999691545963 -0.082016997039318085 0.0089050000533461571
   vertex -0.0085960002616047859 -0.081442996859550476 0.0084729995578527451
   vertex -0.0046979999169707298 -0.083114996552467346 0.014977999962866306
  endloop
 endfacet
 facet normal -0.1085577687974829 0.98769686025138159 0.1125616412605782
  outer loop
   vertex 0.0009679999784566462 -0.08218500018119812 0.012281999923288822
   vertex -0.0010049999691545963 -0.082016997039318085 0.0089050000533461571
   vertex -0.0046979999169707298 -0.083114996552467346 0.014977999962866306
  endloop
 endfacet
 facet normal -0.14938331912625707 0.9884104502183958 0.027007514989181663
  outer loop
   vertex 3.4000000596279278e-05 -0.082483001053333282 0.018022000789642334
   vertex 0.0009679999784566462 -0.08218500018119812 0.012281999923288822
   vertex -0.0046979999169707298 -0.083114996552467346 0.014977999962866306
  endloop
 endfacet
 facet normal -0.060460927486669765 0.99187345774035607 -0.11194427219666854
  outer loop
   vertex -0.0014519999967887998 -0.082062996923923492 0.022546000778675079
   vertex 3.4000000596279278e-05 -0.082483001053333282 0.018022000789642334
   vertex -0.0046979999169707298 -0.083114996552467346 0.014977999962866306
  endloop
 endfacet
 facet normal 0.29508375754340155 0.95303864711365638 0.068138925305866613
  outer loop
   vertex -0.0085960002616047859 -0.081442996859550476 0.0084729995578527451
   vertex -0.011646999977529049 -0.08089900016784668 0.014077000319957733
   vertex -0.0046979999169707298 -0.083114996552467346 0.014977999962866306
  endloop
 endfacet
 facet normal -0.0056996248995396402 0.99079080901054262 -0.13528151040049413
  outer loop
   vertex -0.0069519998505711555 -0.081987999379634857 0.023327000439167023
   vertex -0.0014519999967887998 -0.082062996923923492 0.022546000778675079
   vertex -0.0046979999169707298 -0.083114996552467346 0.014977999962866306
  endloop
 endfacet
 facet normal 0.26203261040562736 0.92856922831443922 0.26286517325720343
  outer loop
   vertex -0.011646999977529049 -0.08089900016784668 0.014077000319957733
   vertex -0.011702000163495541 -0.08228900283575058 0.0190420001745224
   vertex -0.0046979999169707298 -0.083114996552467346 0.014977999962866306
  endloop
 endfacet
 facet normal 0.046566493515447782 0.99152662390794744 -0.12127042410820284
  outer loop
   vertex -0.011702000163495541 -0.08228900283575058 0.0190420001745224
   vertex -0.0069519998505711555 -0.081987999379634857 0.023327000439167023
   vertex -0.0046979999169707298 -0.083114996552467346 0.014977999962866306
  endloop
 endfacet
endsolid
