solid Visualization Toolkit generated SLA File
 facet normal 0.160236 -0.0225275 0.986822
  outer loop
   vertex -0.002714 -0.077016 -0.001663
   vertex -0.007757 -0.080821 -0.000931
   vertex -0.002864 -0.08369 -0.001791
  endloop
 endfacet
 facet normal -0.404193 -0.814246 0.416692
  outer loop
   vertex -0.00245 -0.085223 -0.004385
   vertex -0.002864 -0.08369 -0.001791
   vertex -0.007757 -0.080821 -0.000931
  endloop
 endfacet
 facet normal 0.160236 -0.0225275 0.986822
  outer loop
   vertex -0.00264 -0.070391 -0.001137
   vertex -0.007622 -0.074053 -3.5e-05
   vertex -0.002714 -0.077016 -0.001663
  endloop
 endfacet
 facet normal -0.404193 -0.814246 0.416692
  outer loop
   vertex -0.007757 -0.080821 -0.000931
   vertex -0.002714 -0.077016 -0.001663
   vertex -0.007622 -0.074053 -3.5e-05
  endloop
 endfacet
 facet normal 0.160236 -0.0225275 0.986822
  outer loop
   vertex 0.005042 -0.079323 -0.000271
   vertex -0.002714 -0.077016 -0.001663
   vertex 0.001912 -0.084176 -0.004572
  endloop
 endfacet
 facet normal -0.404193 -0.814246 0.416692
  outer loop
   vertex -0.002864 -0.08369 -0.001791
   vertex 0.001912 -0.084176 -0.004572
   vertex -0.002714 -0.077016 -0.001663
  endloop
 endfacet
 facet normal -0.984735 0.0254347 -0.172194
  outer loop
   vertex 0.005042 -0.079323 -0.000271
   vertex 0.005796 -0.072244 -0.000322
   vertex -0.002714 -0.077016 -0.001663
  endloop
 endfacet
 facet normal 0.345146 -0.285439 0.894091
  outer loop
   vertex -0.002714 -0.077016 -0.001663
   vertex 0.005796 -0.072244 -0.000322
   vertex -0.00264 -0.070391 -0.001137
  endloop
 endfacet
 facet normal 0.160236 -0.0225275 0.986822
  outer loop
   vertex -0.007757 -0.080821 -0.000931
   vertex -0.004873 -0.079055 -0.011211
   vertex -0.00245 -0.085223 -0.004385
  endloop
 endfacet
 facet normal -0.404193 -0.814246 0.416692
  outer loop
   vertex -0.00242 -0.084582 -0.007649
   vertex -0.00245 -0.085223 -0.004385
   vertex -0.004873 -0.079055 -0.011211
  endloop
 endfacet
 facet normal -0.984735 0.0254347 -0.172194
  outer loop
   vertex -0.007757 -0.080821 -0.000931
   vertex -0.007622 -0.074053 -3.5e-05
   vertex -0.004873 -0.079055 -0.011211
  endloop
 endfacet
 facet normal 0.345146 -0.285439 0.894091
  outer loop
   vertex -0.007622 -0.074053 -3.5e-05
   vertex -0.006662 -0.072624 -0.012957
   vertex -0.004873 -0.079055 -0.011211
  endloop
 endfacet
 facet normal 0.1653727297389819 -0.96803269034770245 -0.18858571175162461
  outer loop
   vertex -0.0024500000290572643 -0.085222996771335602 -0.0043850000947713852
   vertex -0.0024200000334531069 -0.084582000970840454 -0.0076489998027682304
   vertex 4.6000001020729542e-05 -0.084278002381324768 -0.0070469998754560947
  endloop
 endfacet
 facet normal 0.691159670006813 -0.56846472947065307 0.44625795444331373
  outer loop
   vertex -0.0028639999218285084 -0.08369000256061554 -0.001791000016964972
   vertex -0.0024500000290572643 -0.085222996771335602 -0.0043850000947713852
   vertex 4.6000001020729542e-05 -0.084278002381324768 -0.0070469998754560947
  endloop
 endfacet
 facet normal -0.053777925406485946 -0.99521629302988612 0.081562643574286151
  outer loop
   vertex 0.0019120000069960952 -0.084175996482372284 -0.0045719998888671398
   vertex -0.0028639999218285084 -0.08369000256061554 -0.001791000016964972
   vertex 4.6000001020729542e-05 -0.084278002381324768 -0.0070469998754560947
  endloop
 endfacet
 facet normal -0.404193 -0.814246 0.416692
  outer loop
   vertex -0.007622 -0.074053 -3.5e-05
   vertex -0.00264 -0.070391 -0.001137
   vertex -0.008404 -0.067252 -0.002139
  endloop
 endfacet
 facet normal 0.160236 -0.0225275 0.986822
  outer loop
   vertex -0.003576 -0.063814 -0.001893
   vertex -0.008404 -0.067252 -0.002139
   vertex -0.00264 -0.070391 -0.001137
  endloop
 endfacet
 facet normal 0.345146 -0.285439 0.894091
  outer loop
   vertex -0.003576 -0.063814 -0.001893
   vertex -0.00264 -0.070391 -0.001137
   vertex 0.003126 -0.065831 -0.002726
  endloop
 endfacet
 facet normal -0.984735 0.0254347 -0.172194
  outer loop
   vertex 0.005796 -0.072244 -0.000322
   vertex 0.003126 -0.065831 -0.002726
   vertex -0.00264 -0.070391 -0.001137
  endloop
 endfacet
 facet normal 0.345146 -0.285439 0.894091
  outer loop
   vertex -0.007223 -0.065781 -0.012692
   vertex -0.006662 -0.072624 -0.012957
   vertex -0.008404 -0.067252 -0.002139
  endloop
 endfacet
 facet normal -0.984735 0.0254347 -0.172194
  outer loop
   vertex -0.007622 -0.074053 -3.5e-05
   vertex -0.008404 -0.067252 -0.002139
   vertex -0.006662 -0.072624 -0.012957
  endloop
 endfacet
 facet normal 0.345146 -0.285439 0.894091
  outer loop
   vertex 0.005042 -0.079323 -0.000271
   vertex 0.001912 -0.084176 -0.004572
   vertex 0.006142 -0.080543 -0.003344
  endloop
 endfacet
 facet normal -0.984735 0.0254347 -0.172194
  outer loop
   vertex 0.006142 -0.080543 -0.003344
   vertex 0.001912 -0.084176 -0.004572
   vertex 0.001511 -0.084876 -0.005867
  endloop
 endfacet
 facet normal 0.345146 -0.285439 0.894091
  outer loop
   vertex 0.005796 -0.072244 -0.000322
   vertex 0.005042 -0.079323 -0.000271
   vertex 0.006849 -0.073969 -0.004631
  endloop
 endfacet
 facet normal -0.984735 0.0254347 -0.172194
  outer loop
   vertex 0.006142 -0.080543 -0.003344
   vertex 0.006849 -0.073969 -0.004631
   vertex 0.005042 -0.079323 -0.000271
  endloop
 endfacet
 facet normal -0.64325624613846888 -0.57234845247965849 0.50856528661321887
  outer loop
   vertex 0.0015109999803826213 -0.084876000881195068 -0.0058670002035796642
   vertex 0.0019120000069960952 -0.084175996482372284 -0.0045719998888671398
   vertex 4.6000001020729542e-05 -0.084278002381324768 -0.0070469998754560947
  endloop
 endfacet
 facet normal -0.984735 0.0254347 -0.172194
  outer loop
   vertex 0.006849 -0.073969 -0.004631
   vertex 0.004156 -0.066996 -0.005041
   vertex 0.005796 -0.072244 -0.000322
  endloop
 endfacet
 facet normal 0.345146 -0.285439 0.894091
  outer loop
   vertex 0.003126 -0.065831 -0.002726
   vertex 0.005796 -0.072244 -0.000322
   vertex 0.004156 -0.066996 -0.005041
  endloop
 endfacet
 facet normal 0.345146 -0.285439 0.894091
  outer loop
   vertex -0.000837 -0.078607 -0.013549
   vertex -0.002126 -0.08439 -0.009755
   vertex -0.004873 -0.079055 -0.011211
  endloop
 endfacet
 facet normal -0.984735 0.0254347 -0.172194
  outer loop
   vertex -0.004873 -0.079055 -0.011211
   vertex -0.002126 -0.08439 -0.009755
   vertex -0.00242 -0.084582 -0.007649
  endloop
 endfacet
 facet normal 0.345146 -0.285439 0.894091
  outer loop
   vertex -0.000324 -0.071885 -0.014846
   vertex -0.000837 -0.078607 -0.013549
   vertex -0.006662 -0.072624 -0.012957
  endloop
 endfacet
 facet normal -0.984735 0.0254347 -0.172194
  outer loop
   vertex -0.004873 -0.079055 -0.011211
   vertex -0.006662 -0.072624 -0.012957
   vertex -0.000837 -0.078607 -0.013549
  endloop
 endfacet
 facet normal 0.13901431608821446 -0.98776719144653047 -0.070646977460889826
  outer loop
   vertex -0.0024200000334531069 -0.084582000970840454 -0.0076489998027682304
   vertex -0.002125999890267849 -0.084389999508857727 -0.009754999540746212
   vertex 4.6000001020729542e-05 -0.084278002381324768 -0.0070469998754560947
  endloop
 endfacet
 facet normal -0.404193 -0.814246 0.416692
  outer loop
   vertex -0.000324 -0.071885 -0.014846
   vertex -0.006662 -0.072624 -0.012957
   vertex -0.002082 -0.0651 -0.014527
  endloop
 endfacet
 facet normal 0.160236 -0.0225275 0.986822
  outer loop
   vertex -0.007223 -0.065781 -0.012692
   vertex -0.002082 -0.0651 -0.014527
   vertex -0.006662 -0.072624 -0.012957
  endloop
 endfacet
 facet normal -0.20217132125737802 -0.9516504495191549 -0.23127511494113781
  outer loop
   vertex 0.0024689999409019947 -0.083852000534534454 -0.010917999781668186
   vertex 0.0015109999803826213 -0.084876000881195068 -0.0058670002035796642
   vertex 4.6000001020729542e-05 -0.084278002381324768 -0.0070469998754560947
  endloop
 endfacet
 facet normal -0.68017159840519326 -0.54867849036013638 -0.48612602372126318
  outer loop
   vertex 0.0028679999522864819 -0.082836002111434937 -0.012622999958693981
   vertex 0.0024689999409019947 -0.083852000534534454 -0.010917999781668186
   vertex 4.6000001020729542e-05 -0.084278002381324768 -0.0070469998754560947
  endloop
 endfacet
 facet normal 0.22137546417191728 -0.9654278075019046 -0.13763012884079448
  outer loop
   vertex -0.002125999890267849 -0.084389999508857727 -0.009754999540746212
   vertex 0.0028679999522864819 -0.082836002111434937 -0.012622999958693981
   vertex 4.6000001020729542e-05 -0.084278002381324768 -0.0070469998754560947
  endloop
 endfacet
 facet normal -0.404193 -0.814246 0.416692
  outer loop
   vertex -0.008404 -0.067252 -0.002139
   vertex -0.003576 -0.063814 -0.001893
   vertex -0.008727 -0.06028 -0.003543
  endloop
 endfacet
 facet normal 0.160236 -0.0225275 0.986822
  outer loop
   vertex -0.004559 -0.057208 -0.002823
   vertex -0.008727 -0.06028 -0.003543
   vertex -0.003576 -0.063814 -0.001893
  endloop
 endfacet
 facet normal -0.984735 0.0254347 -0.172194
  outer loop
   vertex 0.003126 -0.065831 -0.002726
   vertex 0.000275 -0.059213 -0.004075
   vertex -0.003576 -0.063814 -0.001893
  endloop
 endfacet
 facet normal 0.345146 -0.285439 0.894091
  outer loop
   vertex -0.004559 -0.057208 -0.002823
   vertex -0.003576 -0.063814 -0.001893
   vertex 0.000275 -0.059213 -0.004075
  endloop
 endfacet
 facet normal -0.984735 0.0254347 -0.172194
  outer loop
   vertex -0.008404 -0.067252 -0.002139
   vertex -0.008727 -0.06028 -0.003543
   vertex -0.007223 -0.065781 -0.012692
  endloop
 endfacet
 facet normal 0.345146 -0.285439 0.894091
  outer loop
   vertex -0.007599 -0.058881 -0.011812
   vertex -0.007223 -0.065781 -0.012692
   vertex -0.008727 -0.06028 -0.003543
  endloop
 endfacet
 facet normal -0.984735 0.0254347 -0.172194
  outer loop
   vertex 0.004156 -0.066996 -0.005041
   vertex 0.002118 -0.060356 -0.005536
   vertex 0.003126 -0.065831 -0.002726
  endloop
 endfacet
 facet normal 0.345146 -0.285439 0.894091
  outer loop
   vertex 0.000275 -0.059213 -0.004075
   vertex 0.003126 -0.065831 -0.002726
   vertex 0.002118 -0.060356 -0.005536
  endloop
 endfacet
 facet normal -0.404193 -0.814246 0.416692
  outer loop
   vertex -0.002082 -0.0651 -0.014527
   vertex -0.007223 -0.065781 -0.012692
   vertex -0.004524 -0.058578 -0.014436
  endloop
 endfacet
 facet normal 0.160236 -0.0225275 0.986822
  outer loop
   vertex -0.007599 -0.058881 -0.011812
   vertex -0.004524 -0.058578 -0.014436
   vertex -0.007223 -0.065781 -0.012692
  endloop
 endfacet
 facet normal 0.69251128421082919 -0.72110747440067524 -0.020787775353504439
  outer loop
   vertex 0.0075830002315342426 -0.078941002488136292 -0.010910999961197376
   vertex 0.0061420002020895481 -0.080542996525764465 -0.0033440000843256712
   vertex 0.0024689999409019947 -0.083852000534534454 -0.010917999781668186
  endloop
 endfacet
 facet normal -0.404193 -0.814246 0.416692
  outer loop
   vertex 0.006142 -0.080543 -0.003344
   vertex 0.007583 -0.078941 -0.010911
   vertex 0.006849 -0.073969 -0.004631
  endloop
 endfacet
 facet normal 0.160236 -0.0225275 0.986822
  outer loop
   vertex 0.0086 -0.072629 -0.010658
   vertex 0.006849 -0.073969 -0.004631
   vertex 0.007583 -0.078941 -0.010911
  endloop
 endfacet
 facet normal 0.68794103458667721 -0.72557628109120043 -0.016619062839870923
  outer loop
   vertex 0.0015109999803826213 -0.084876000881195068 -0.0058670002035796642
   vertex 0.0024689999409019947 -0.083852000534534454 -0.010917999781668186
   vertex 0.0061420002020895481 -0.080542996525764465 -0.0033440000843256712
  endloop
 endfacet
 facet normal -0.404193 -0.814246 0.416692
  outer loop
   vertex 0.006849 -0.073969 -0.004631
   vertex 0.0086 -0.072629 -0.010658
   vertex 0.004156 -0.066996 -0.005041
  endloop
 endfacet
 facet normal 0.160236 -0.0225275 0.986822
  outer loop
   vertex 0.004547 -0.066625 -0.009473
   vertex 0.004156 -0.066996 -0.005041
   vertex 0.0086 -0.072629 -0.010658
  endloop
 endfacet
 facet normal 0.160236 -0.0225275 0.986822
  outer loop
   vertex 0.001214 -0.060671 -0.010447
   vertex 0.002118 -0.060356 -0.005536
   vertex 0.004547 -0.066625 -0.009473
  endloop
 endfacet
 facet normal -0.404193 -0.814246 0.416692
  outer loop
   vertex 0.004156 -0.066996 -0.005041
   vertex 0.004547 -0.066625 -0.009473
   vertex 0.002118 -0.060356 -0.005536
  endloop
 endfacet
 facet normal -0.984735 0.0254347 -0.172194
  outer loop
   vertex -0.002126 -0.08439 -0.009755
   vertex -0.000837 -0.078607 -0.013549
   vertex 0.002868 -0.082836 -0.012623
  endloop
 endfacet
 facet normal 0.345146 -0.285439 0.894091
  outer loop
   vertex 0.007256 -0.077982 -0.015412
   vertex 0.002868 -0.082836 -0.012623
   vertex -0.000837 -0.078607 -0.013549
  endloop
 endfacet
 facet normal -0.984735 0.0254347 -0.172194
  outer loop
   vertex -0.000837 -0.078607 -0.013549
   vertex -0.000324 -0.071885 -0.014846
   vertex 0.007256 -0.077982 -0.015412
  endloop
 endfacet
 facet normal 0.345146 -0.285439 0.894091
  outer loop
   vertex 0.006931 -0.071079 -0.015026
   vertex 0.007256 -0.077982 -0.015412
   vertex -0.000324 -0.071885 -0.014846
  endloop
 endfacet
 facet normal -0.404193 -0.814246 0.416692
  outer loop
   vertex 0.006931 -0.071079 -0.015026
   vertex -0.000324 -0.071885 -0.014846
   vertex 0.001587 -0.067361 -0.012359
  endloop
 endfacet
 facet normal 0.160236 -0.0225275 0.986822
  outer loop
   vertex -0.002082 -0.0651 -0.014527
   vertex 0.001587 -0.067361 -0.012359
   vertex -0.000324 -0.071885 -0.014846
  endloop
 endfacet
 facet normal 0.160236 -0.0225275 0.986822
  outer loop
   vertex -0.004524 -0.058578 -0.014436
   vertex -0.000273 -0.060206 -0.012138
   vertex -0.002082 -0.0651 -0.014527
  endloop
 endfacet
 facet normal -0.404193 -0.814246 0.416692
  outer loop
   vertex 0.001587 -0.067361 -0.012359
   vertex -0.002082 -0.0651 -0.014527
   vertex -0.000273 -0.060206 -0.012138
  endloop
 endfacet
 facet normal 0.160236 -0.0225275 0.986822
  outer loop
   vertex 0.007256 -0.077982 -0.015412
   vertex 0.007583 -0.078941 -0.010911
   vertex 0.002868 -0.082836 -0.012623
  endloop
 endfacet
 facet normal -0.404193 -0.814246 0.416692
  outer loop
   vertex 0.002469 -0.083852 -0.010918
   vertex 0.002868 -0.082836 -0.012623
   vertex 0.007583 -0.078941 -0.010911
  endloop
 endfacet
 facet normal 0.160236 -0.0225275 0.986822
  outer loop
   vertex -0.004842 -0.050537 -0.003168
   vertex -0.009299 -0.053298 -0.004869
   vertex -0.004559 -0.057208 -0.002823
  endloop
 endfacet
 facet normal -0.404193 -0.814246 0.416692
  outer loop
   vertex -0.008727 -0.06028 -0.003543
   vertex -0.004559 -0.057208 -0.002823
   vertex -0.009299 -0.053298 -0.004869
  endloop
 endfacet
 facet normal -0.984735 0.0254347 -0.172194
  outer loop
   vertex 0.000275 -0.059213 -0.004075
   vertex -0.001042 -0.052111 -0.004128
   vertex -0.004559 -0.057208 -0.002823
  endloop
 endfacet
 facet normal 0.345146 -0.285439 0.894091
  outer loop
   vertex -0.004842 -0.050537 -0.003168
   vertex -0.004559 -0.057208 -0.002823
   vertex -0.001042 -0.052111 -0.004128
  endloop
 endfacet
 facet normal -0.984735 0.0254347 -0.172194
  outer loop
   vertex -0.008727 -0.06028 -0.003543
   vertex -0.009299 -0.053298 -0.004869
   vertex -0.007599 -0.058881 -0.011812
  endloop
 endfacet
 facet normal 0.345146 -0.285439 0.894091
  outer loop
   vertex -0.007599 -0.058881 -0.011812
   vertex -0.009299 -0.053298 -0.004869
   vertex -0.008366 -0.052056 -0.011215
  endloop
 endfacet
 facet normal 0.345146 -0.285439 0.894091
  outer loop
   vertex -0.001042 -0.052111 -0.004128
   vertex 0.000275 -0.059213 -0.004075
   vertex 0.001197 -0.05351 -0.006953
  endloop
 endfacet
 facet normal -0.984735 0.0254347 -0.172194
  outer loop
   vertex 0.002118 -0.060356 -0.005536
   vertex 0.001197 -0.05351 -0.006953
   vertex 0.000275 -0.059213 -0.004075
  endloop
 endfacet
 facet normal -0.404193 -0.814246 0.416692
  outer loop
   vertex -0.004524 -0.058578 -0.014436
   vertex -0.007599 -0.058881 -0.011812
   vertex -0.006602 -0.052038 -0.013371
  endloop
 endfacet
 facet normal 0.160236 -0.0225275 0.986822
  outer loop
   vertex -0.008366 -0.052056 -0.011215
   vertex -0.006602 -0.052038 -0.013371
   vertex -0.007599 -0.058881 -0.011812
  endloop
 endfacet
 facet normal -0.404193 -0.814246 0.416692
  outer loop
   vertex 0.002118 -0.060356 -0.005536
   vertex 0.001214 -0.060671 -0.010447
   vertex 0.001197 -0.05351 -0.006953
  endloop
 endfacet
 facet normal 0.160236 -0.0225275 0.986822
  outer loop
   vertex 0.001197 -0.05351 -0.006953
   vertex 0.001214 -0.060671 -0.010447
   vertex 0.000186 -0.053961 -0.011145
  endloop
 endfacet
 facet normal 0.160236 -0.0225275 0.986822
  outer loop
   vertex -0.006602 -0.052038 -0.013371
   vertex -0.001303 -0.052985 -0.012714
   vertex -0.004524 -0.058578 -0.014436
  endloop
 endfacet
 facet normal -0.404193 -0.814246 0.416692
  outer loop
   vertex -0.000273 -0.060206 -0.012138
   vertex -0.004524 -0.058578 -0.014436
   vertex -0.001303 -0.052985 -0.012714
  endloop
 endfacet
 facet normal 0.160236 -0.0225275 0.986822
  outer loop
   vertex 0.006931 -0.071079 -0.015026
   vertex 0.0086 -0.072629 -0.010658
   vertex 0.007256 -0.077982 -0.015412
  endloop
 endfacet
 facet normal -0.404193 -0.814246 0.416692
  outer loop
   vertex 0.007583 -0.078941 -0.010911
   vertex 0.007256 -0.077982 -0.015412
   vertex 0.0086 -0.072629 -0.010658
  endloop
 endfacet
 facet normal -0.404193 -0.814246 0.416692
  outer loop
   vertex 0.0086 -0.072629 -0.010658
   vertex 0.006931 -0.071079 -0.015026
   vertex 0.004547 -0.066625 -0.009473
  endloop
 endfacet
 facet normal 0.160236 -0.0225275 0.986822
  outer loop
   vertex 0.001587 -0.067361 -0.012359
   vertex 0.004547 -0.066625 -0.009473
   vertex 0.006931 -0.071079 -0.015026
  endloop
 endfacet
 facet normal -0.404193 -0.814246 0.416692
  outer loop
   vertex 0.004547 -0.066625 -0.009473
   vertex 0.001587 -0.067361 -0.012359
   vertex 0.001214 -0.060671 -0.010447
  endloop
 endfacet
 facet normal 0.160236 -0.0225275 0.986822
  outer loop
   vertex -0.000273 -0.060206 -0.012138
   vertex 0.001214 -0.060671 -0.010447
   vertex 0.001587 -0.067361 -0.012359
  endloop
 endfacet
 facet normal -0.404193 -0.814246 0.416692
  outer loop
   vertex 0.001214 -0.060671 -0.010447
   vertex -0.000273 -0.060206 -0.012138
   vertex 0.000186 -0.053961 -0.011145
  endloop
 endfacet
 facet normal 0.160236 -0.0225275 0.986822
  outer loop
   vertex -0.001303 -0.052985 -0.012714
   vertex 0.000186 -0.053961 -0.011145
   vertex -0.000273 -0.060206 -0.012138
  endloop
 endfacet
 facet normal 0.160236 -0.0225275 0.986822
  outer loop
   vertex -0.004429 -0.043877 -0.003433
   vertex -0.009217 -0.046251 -0.005529
   vertex -0.004842 -0.050537 -0.003168
  endloop
 endfacet
 facet normal -0.404193 -0.814246 0.416692
  outer loop
   vertex -0.009299 -0.053298 -0.004869
   vertex -0.004842 -0.050537 -0.003168
   vertex -0.009217 -0.046251 -0.005529
  endloop
 endfacet
 facet normal 0.345146 -0.285439 0.894091
  outer loop
   vertex -0.004429 -0.043877 -0.003433
   vertex -0.004842 -0.050537 -0.003168
   vertex -0.000669 -0.044957 -0.004914
  endloop
 endfacet
 facet normal -0.984735 0.0254347 -0.172194
  outer loop
   vertex -0.001042 -0.052111 -0.004128
   vertex -0.000669 -0.044957 -0.004914
   vertex -0.004842 -0.050537 -0.003168
  endloop
 endfacet
 facet normal -0.984735 0.0254347 -0.172194
  outer loop
   vertex -0.009299 -0.053298 -0.004869
   vertex -0.009217 -0.046251 -0.005529
   vertex -0.008366 -0.052056 -0.011215
  endloop
 endfacet
 facet normal 0.345146 -0.285439 0.894091
  outer loop
   vertex -0.008825 -0.045201 -0.010916
   vertex -0.008366 -0.052056 -0.011215
   vertex -0.009217 -0.046251 -0.005529
  endloop
 endfacet
 facet normal -0.984735 0.0254347 -0.172194
  outer loop
   vertex 0.001197 -0.05351 -0.006953
   vertex 0.000855 -0.046491 -0.007699
   vertex -0.001042 -0.052111 -0.004128
  endloop
 endfacet
 facet normal 0.345146 -0.285439 0.894091
  outer loop
   vertex -0.000669 -0.044957 -0.004914
   vertex -0.001042 -0.052111 -0.004128
   vertex 0.000855 -0.046491 -0.007699
  endloop
 endfacet
 facet normal -0.404193 -0.814246 0.416692
  outer loop
   vertex -0.006602 -0.052038 -0.013371
   vertex -0.008366 -0.052056 -0.011215
   vertex -0.007404 -0.04524 -0.012316
  endloop
 endfacet
 facet normal 0.160236 -0.0225275 0.986822
  outer loop
   vertex -0.008366 -0.052056 -0.011215
   vertex -0.008825 -0.045201 -0.010916
   vertex -0.007404 -0.04524 -0.012316
  endloop
 endfacet
 facet normal -0.984735 0.0254347 -0.172194
  outer loop
   vertex 0.000186 -0.053961 -0.011145
   vertex 0.00015 -0.046898 -0.011396
   vertex 0.001197 -0.05351 -0.006953
  endloop
 endfacet
 facet normal 0.345146 -0.285439 0.894091
  outer loop
   vertex 0.000855 -0.046491 -0.007699
   vertex 0.001197 -0.05351 -0.006953
   vertex 0.00015 -0.046898 -0.011396
  endloop
 endfacet
 facet normal 0.160236 -0.0225275 0.986822
  outer loop
   vertex -0.007404 -0.04524 -0.012316
   vertex -0.002066 -0.04615 -0.013225
   vertex -0.006602 -0.052038 -0.013371
  endloop
 endfacet
 facet normal -0.404193 -0.814246 0.416692
  outer loop
   vertex -0.001303 -0.052985 -0.012714
   vertex -0.006602 -0.052038 -0.013371
   vertex -0.002066 -0.04615 -0.013225
  endloop
 endfacet
 facet normal 0.160236 -0.0225275 0.986822
  outer loop
   vertex -0.002066 -0.04615 -0.013225
   vertex 0.00015 -0.046898 -0.011396
   vertex -0.001303 -0.052985 -0.012714
  endloop
 endfacet
 facet normal -0.404193 -0.814246 0.416692
  outer loop
   vertex 0.000186 -0.053961 -0.011145
   vertex -0.001303 -0.052985 -0.012714
   vertex 0.00015 -0.046898 -0.011396
  endloop
 endfacet
 facet normal 0.160236 -0.0225275 0.986822
  outer loop
   vertex -0.003643 -0.037244 -0.003706
   vertex -0.008394 -0.039169 -0.005557
   vertex -0.004429 -0.043877 -0.003433
  endloop
 endfacet
 facet normal -0.404193 -0.814246 0.416692
  outer loop
   vertex -0.008394 -0.039169 -0.005557
   vertex -0.009217 -0.046251 -0.005529
   vertex -0.004429 -0.043877 -0.003433
  endloop
 endfacet
 facet normal -0.984735 0.0254347 -0.172194
  outer loop
   vertex -0.000669 -0.044957 -0.004914
   vertex 0.000236 -0.037806 -0.005063
   vertex -0.004429 -0.043877 -0.003433
  endloop
 endfacet
 facet normal 0.345146 -0.285439 0.894091
  outer loop
   vertex -0.003643 -0.037244 -0.003706
   vertex -0.004429 -0.043877 -0.003433
   vertex 0.000236 -0.037806 -0.005063
  endloop
 endfacet
 facet normal -0.984735 0.0254347 -0.172194
  outer loop
   vertex -0.009217 -0.046251 -0.005529
   vertex -0.008394 -0.039169 -0.005557
   vertex -0.008825 -0.045201 -0.010916
  endloop
 endfacet
 facet normal 0.345146 -0.285439 0.894091
  outer loop
   vertex -0.008705 -0.038306 -0.010776
   vertex -0.008825 -0.045201 -0.010916
   vertex -0.008394 -0.039169 -0.005557
  endloop
 endfacet
 facet normal -0.984735 0.0254347 -0.172194
  outer loop
   vertex 0.000855 -0.046491 -0.007699
   vertex 0.000947 -0.039441 -0.00726
   vertex -0.000669 -0.044957 -0.004914
  endloop
 endfacet
 facet normal 0.345146 -0.285439 0.894091
  outer loop
   vertex 0.000236 -0.037806 -0.005063
   vertex -0.000669 -0.044957 -0.004914
   vertex 0.000947 -0.039441 -0.00726
  endloop
 endfacet
 facet normal -0.404193 -0.814246 0.416692
  outer loop
   vertex -0.007404 -0.04524 -0.012316
   vertex -0.008825 -0.045201 -0.010916
   vertex -0.007179 -0.038286 -0.011919
  endloop
 endfacet
 facet normal 0.160236 -0.0225275 0.986822
  outer loop
   vertex -0.008705 -0.038306 -0.010776
   vertex -0.007179 -0.038286 -0.011919
   vertex -0.008825 -0.045201 -0.010916
  endloop
 endfacet
 facet normal 0.345146 -0.285439 0.894091
  outer loop
   vertex 0.000947 -0.039441 -0.00726
   vertex 0.000855 -0.046491 -0.007699
   vertex 3.8e-05 -0.039864 -0.011168
  endloop
 endfacet
 facet normal -0.984735 0.0254347 -0.172194
  outer loop
   vertex 0.00015 -0.046898 -0.011396
   vertex 3.8e-05 -0.039864 -0.011168
   vertex 0.000855 -0.046491 -0.007699
  endloop
 endfacet
 facet normal -0.404193 -0.814246 0.416692
  outer loop
   vertex -0.002066 -0.04615 -0.013225
   vertex -0.007404 -0.04524 -0.012316
   vertex -0.002087 -0.039111 -0.013363
  endloop
 endfacet
 facet normal 0.160236 -0.0225275 0.986822
  outer loop
   vertex -0.007179 -0.038286 -0.011919
   vertex -0.002087 -0.039111 -0.013363
   vertex -0.007404 -0.04524 -0.012316
  endloop
 endfacet
 facet normal 0.160236 -0.0225275 0.986822
  outer loop
   vertex -0.002087 -0.039111 -0.013363
   vertex 3.8e-05 -0.039864 -0.011168
   vertex -0.002066 -0.04615 -0.013225
  endloop
 endfacet
 facet normal -0.404193 -0.814246 0.416692
  outer loop
   vertex 0.00015 -0.046898 -0.011396
   vertex -0.002066 -0.04615 -0.013225
   vertex 3.8e-05 -0.039864 -0.011168
  endloop
 endfacet
 facet normal -0.404193 -0.814246 0.416692
  outer loop
   vertex -0.008394 -0.039169 -0.005557
   vertex -0.003643 -0.037244 -0.003706
   vertex -0.007415 -0.032135 -0.005443
  endloop
 endfacet
 facet normal 0.160236 -0.0225275 0.986822
  outer loop
   vertex -0.003079 -0.030594 -0.003576
   vertex -0.007415 -0.032135 -0.005443
   vertex -0.003643 -0.037244 -0.003706
  endloop
 endfacet
 facet normal -0.984735 0.0254347 -0.172194
  outer loop
   vertex 0.000236 -0.037806 -0.005063
   vertex 0.000549 -0.030731 -0.003789
   vertex -0.003643 -0.037244 -0.003706
  endloop
 endfacet
 facet normal 0.345146 -0.285439 0.894091
  outer loop
   vertex -0.003079 -0.030594 -0.003576
   vertex -0.003643 -0.037244 -0.003706
   vertex 0.000549 -0.030731 -0.003789
  endloop
 endfacet
 facet normal -0.984735 0.0254347 -0.172194
  outer loop
   vertex -0.008394 -0.039169 -0.005557
   vertex -0.007415 -0.032135 -0.005443
   vertex -0.008705 -0.038306 -0.010776
  endloop
 endfacet
 facet normal 0.345146 -0.285439 0.894091
  outer loop
   vertex -0.008151 -0.031437 -0.010589
   vertex -0.008705 -0.038306 -0.010776
   vertex -0.007415 -0.032135 -0.005443
  endloop
 endfacet
 facet normal 0.345146 -0.285439 0.894091
  outer loop
   vertex 0.000549 -0.030731 -0.003789
   vertex 0.000236 -0.037806 -0.005063
   vertex 0.001814 -0.032471 -0.006609
  endloop
 endfacet
 facet normal -0.984735 0.0254347 -0.172194
  outer loop
   vertex 0.000947 -0.039441 -0.00726
   vertex 0.001814 -0.032471 -0.006609
   vertex 0.000236 -0.037806 -0.005063
  endloop
 endfacet
 facet normal 0.345146 -0.285439 0.894091
  outer loop
   vertex -0.006483 -0.031377 -0.011933
   vertex -0.007179 -0.038286 -0.011919
   vertex -0.008151 -0.031437 -0.010589
  endloop
 endfacet
 facet normal -0.984735 0.0254347 -0.172194
  outer loop
   vertex -0.008705 -0.038306 -0.010776
   vertex -0.008151 -0.031437 -0.010589
   vertex -0.007179 -0.038286 -0.011919
  endloop
 endfacet
 facet normal 0.345146 -0.285439 0.894091
  outer loop
   vertex 0.001814 -0.032471 -0.006609
   vertex 0.000947 -0.039441 -0.00726
   vertex 0.000388 -0.033014 -0.010877
  endloop
 endfacet
 facet normal -0.984735 0.0254347 -0.172194
  outer loop
   vertex 3.8e-05 -0.039864 -0.011168
   vertex 0.000388 -0.033014 -0.010877
   vertex 0.000947 -0.039441 -0.00726
  endloop
 endfacet
 facet normal -0.404193 -0.814246 0.416692
  outer loop
   vertex -0.002087 -0.039111 -0.013363
   vertex -0.007179 -0.038286 -0.011919
   vertex -0.001287 -0.032012 -0.013291
  endloop
 endfacet
 facet normal 0.160236 -0.0225275 0.986822
  outer loop
   vertex -0.006483 -0.031377 -0.011933
   vertex -0.001287 -0.032012 -0.013291
   vertex -0.007179 -0.038286 -0.011919
  endloop
 endfacet
 facet normal -0.404193 -0.814246 0.416692
  outer loop
   vertex 3.8e-05 -0.039864 -0.011168
   vertex -0.002087 -0.039111 -0.013363
   vertex 0.000388 -0.033014 -0.010877
  endloop
 endfacet
 facet normal 0.160236 -0.0225275 0.986822
  outer loop
   vertex -0.001287 -0.032012 -0.013291
   vertex 0.000388 -0.033014 -0.010877
   vertex -0.002087 -0.039111 -0.013363
  endloop
 endfacet
 facet normal -0.404193 -0.814246 0.416692
  outer loop
   vertex -0.007415 -0.032135 -0.005443
   vertex -0.003079 -0.030594 -0.003576
   vertex -0.006535 -0.025084 -0.005199
  endloop
 endfacet
 facet normal 0.160236 -0.0225275 0.986822
  outer loop
   vertex -0.00272 -0.02395 -0.002937
   vertex -0.006535 -0.025084 -0.005199
   vertex -0.003079 -0.030594 -0.003576
  endloop
 endfacet
 facet normal -0.984735 0.0254347 -0.172194
  outer loop
   vertex 0.000549 -0.030731 -0.003789
   vertex 2.1e-05 -0.023745 -0.002355
   vertex -0.003079 -0.030594 -0.003576
  endloop
 endfacet
 facet normal 0.345146 -0.285439 0.894091
  outer loop
   vertex -0.00272 -0.02395 -0.002937
   vertex -0.003079 -0.030594 -0.003576
   vertex 2.1e-05 -0.023745 -0.002355
  endloop
 endfacet
 facet normal -0.984735 0.0254347 -0.172194
  outer loop
   vertex -0.007415 -0.032135 -0.005443
   vertex -0.006535 -0.025084 -0.005199
   vertex -0.008151 -0.031437 -0.010589
  endloop
 endfacet
 facet normal 0.345146 -0.285439 0.894091
  outer loop
   vertex -0.007574 -0.024581 -0.010244
   vertex -0.008151 -0.031437 -0.010589
   vertex -0.006535 -0.025084 -0.005199
  endloop
 endfacet
 facet normal 0.345146 -0.285439 0.894091
  outer loop
   vertex 2.1e-05 -0.023745 -0.002355
   vertex 0.000549 -0.030731 -0.003789
   vertex 0.002949 -0.025489 -0.006607
  endloop
 endfacet
 facet normal -0.984735 0.0254347 -0.172194
  outer loop
   vertex 0.001814 -0.032471 -0.006609
   vertex 0.002949 -0.025489 -0.006607
   vertex 0.000549 -0.030731 -0.003789
  endloop
 endfacet
 facet normal 0.345146 -0.285439 0.894091
  outer loop
   vertex -0.005738 -0.024474 -0.012033
   vertex -0.006483 -0.031377 -0.011933
   vertex -0.007574 -0.024581 -0.010244
  endloop
 endfacet
 facet normal -0.984735 0.0254347 -0.172194
  outer loop
   vertex -0.006483 -0.031377 -0.011933
   vertex -0.008151 -0.031437 -0.010589
   vertex -0.007574 -0.024581 -0.010244
  endloop
 endfacet
 facet normal 0.345146 -0.285439 0.894091
  outer loop
   vertex 0.002949 -0.025489 -0.006607
   vertex 0.001814 -0.032471 -0.006609
   vertex 0.002129 -0.026294 -0.011149
  endloop
 endfacet
 facet normal -0.984735 0.0254347 -0.172194
  outer loop
   vertex 0.000388 -0.033014 -0.010877
   vertex 0.002129 -0.026294 -0.011149
   vertex 0.001814 -0.032471 -0.006609
  endloop
 endfacet
 facet normal 0.345146 -0.285439 0.894091
  outer loop
   vertex 0.000125 -0.025015 -0.013359
   vertex -0.001287 -0.032012 -0.013291
   vertex -0.005738 -0.024474 -0.012033
  endloop
 endfacet
 facet normal -0.984735 0.0254347 -0.172194
  outer loop
   vertex -0.006483 -0.031377 -0.011933
   vertex -0.005738 -0.024474 -0.012033
   vertex -0.001287 -0.032012 -0.013291
  endloop
 endfacet
 facet normal 0.160236 -0.0225275 0.986822
  outer loop
   vertex 0.000125 -0.025015 -0.013359
   vertex 0.002129 -0.026294 -0.011149
   vertex -0.001287 -0.032012 -0.013291
  endloop
 endfacet
 facet normal -0.404193 -0.814246 0.416692
  outer loop
   vertex 0.000388 -0.033014 -0.010877
   vertex -0.001287 -0.032012 -0.013291
   vertex 0.002129 -0.026294 -0.011149
  endloop
 endfacet
 facet normal 0.160236 -0.0225275 0.986822
  outer loop
   vertex -0.002241 -0.017369 -0.001874
   vertex -0.006344 -0.018009 -0.0051
   vertex -0.00272 -0.02395 -0.002937
  endloop
 endfacet
 facet normal -0.404193 -0.814246 0.416692
  outer loop
   vertex -0.006344 -0.018009 -0.0051
   vertex -0.006535 -0.025084 -0.005199
   vertex -0.00272 -0.02395 -0.002937
  endloop
 endfacet
 facet normal -0.404193 -0.814246 0.416692
  outer loop
   vertex -0.00272 -0.02395 -0.002937
   vertex 2.1e-05 -0.023745 -0.002355
   vertex -0.002241 -0.017369 -0.001874
  endloop
 endfacet
 facet normal 0.160236 -0.0225275 0.986822
  outer loop
   vertex 0.000503 -0.016378 -0.00136
   vertex -0.002241 -0.017369 -0.001874
   vertex 2.1e-05 -0.023745 -0.002355
  endloop
 endfacet
 facet normal -0.984735 0.0254347 -0.172194
  outer loop
   vertex -0.006535 -0.025084 -0.005199
   vertex -0.006344 -0.018009 -0.0051
   vertex -0.007574 -0.024581 -0.010244
  endloop
 endfacet
 facet normal 0.345146 -0.285439 0.894091
  outer loop
   vertex -0.007353 -0.017712 -0.009737
   vertex -0.007574 -0.024581 -0.010244
   vertex -0.006344 -0.018009 -0.0051
  endloop
 endfacet
 facet normal 0.345146 -0.285439 0.894091
  outer loop
   vertex 0.000503 -0.016378 -0.00136
   vertex 2.1e-05 -0.023745 -0.002355
   vertex 0.004352 -0.018582 -0.006514
  endloop
 endfacet
 facet normal -0.984735 0.0254347 -0.172194
  outer loop
   vertex 0.002949 -0.025489 -0.006607
   vertex 0.004352 -0.018582 -0.006514
   vertex 2.1e-05 -0.023745 -0.002355
  endloop
 endfacet
 facet normal 0.345146 -0.285439 0.894091
  outer loop
   vertex -0.005215 -0.017565 -0.012461
   vertex -0.005738 -0.024474 -0.012033
   vertex -0.007353 -0.017712 -0.009737
  endloop
 endfacet
 facet normal -0.984735 0.0254347 -0.172194
  outer loop
   vertex -0.007353 -0.017712 -0.009737
   vertex -0.005738 -0.024474 -0.012033
   vertex -0.007574 -0.024581 -0.010244
  endloop
 endfacet
 facet normal 0.345146 -0.285439 0.894091
  outer loop
   vertex 0.004352 -0.018582 -0.006514
   vertex 0.002949 -0.025489 -0.006607
   vertex 0.003603 -0.01955 -0.011747
  endloop
 endfacet
 facet normal -0.984735 0.0254347 -0.172194
  outer loop
   vertex 0.002949 -0.025489 -0.006607
   vertex 0.002129 -0.026294 -0.011149
   vertex 0.003603 -0.01955 -0.011747
  endloop
 endfacet
 facet normal -0.404193 -0.814246 0.416692
  outer loop
   vertex 0.000125 -0.025015 -0.013359
   vertex -0.005738 -0.024474 -0.012033
   vertex -0.001554 -0.017921 -0.013754
  endloop
 endfacet
 facet normal 0.160236 -0.0225275 0.986822
  outer loop
   vertex -0.005215 -0.017565 -0.012461
   vertex -0.001554 -0.017921 -0.013754
   vertex -0.005738 -0.024474 -0.012033
  endloop
 endfacet
 facet normal 0.160236 -0.0225275 0.986822
  outer loop
   vertex -0.001554 -0.017921 -0.013754
   vertex 0.003603 -0.01955 -0.011747
   vertex 0.000125 -0.025015 -0.013359
  endloop
 endfacet
 facet normal -0.404193 -0.814246 0.416692
  outer loop
   vertex 0.000125 -0.025015 -0.013359
   vertex 0.003603 -0.01955 -0.011747
   vertex 0.002129 -0.026294 -0.011149
  endloop
 endfacet
 facet normal 0.345146 -0.285439 0.894091
  outer loop
   vertex -0.006936 -0.010934 -0.005604
   vertex -0.006344 -0.018009 -0.0051
   vertex -0.002064 -0.010647 -0.002618
  endloop
 endfacet
 facet normal -0.984735 0.0254347 -0.172194
  outer loop
   vertex -0.002241 -0.017369 -0.001874
   vertex -0.002064 -0.010647 -0.002618
   vertex -0.006344 -0.018009 -0.0051
  endloop
 endfacet
 facet normal 0.160236 -0.0225275 0.986822
  outer loop
   vertex 0.005745 -0.010896 8.6e-05
   vertex -0.002064 -0.010647 -0.002618
   vertex 0.000503 -0.016378 -0.00136
  endloop
 endfacet
 facet normal -0.404193 -0.814246 0.416692
  outer loop
   vertex -0.002241 -0.017369 -0.001874
   vertex 0.000503 -0.016378 -0.00136
   vertex -0.002064 -0.010647 -0.002618
  endloop
 endfacet
 facet normal -0.984735 0.0254347 -0.172194
  outer loop
   vertex -0.006344 -0.018009 -0.0051
   vertex -0.006936 -0.010934 -0.005604
   vertex -0.007353 -0.017712 -0.009737
  endloop
 endfacet
 facet normal 0.345146 -0.285439 0.894091
  outer loop
   vertex -0.007572 -0.010828 -0.009933
   vertex -0.007353 -0.017712 -0.009737
   vertex -0.006936 -0.010934 -0.005604
  endloop
 endfacet
 facet normal -0.984735 0.0254347 -0.172194
  outer loop
   vertex 0.004352 -0.018582 -0.006514
   vertex 0.007245 -0.012405 -0.004544
   vertex 0.000503 -0.016378 -0.00136
  endloop
 endfacet
 facet normal 0.345146 -0.285439 0.894091
  outer loop
   vertex 0.005745 -0.010896 8.6e-05
   vertex 0.000503 -0.016378 -0.00136
   vertex 0.007245 -0.012405 -0.004544
  endloop
 endfacet
 facet normal 0.345146 -0.285439 0.894091
  outer loop
   vertex -0.005311 -0.010727 -0.013736
   vertex -0.005215 -0.017565 -0.012461
   vertex -0.007572 -0.010828 -0.009933
  endloop
 endfacet
 facet normal -0.984735 0.0254347 -0.172194
  outer loop
   vertex -0.007353 -0.017712 -0.009737
   vertex -0.007572 -0.010828 -0.009933
   vertex -0.005215 -0.017565 -0.012461
  endloop
 endfacet
 facet normal 0.345146 -0.285439 0.894091
  outer loop
   vertex 0.007245 -0.012405 -0.004544
   vertex 0.004352 -0.018582 -0.006514
   vertex 0.006818 -0.012956 -0.010976
  endloop
 endfacet
 facet normal -0.984735 0.0254347 -0.172194
  outer loop
   vertex 0.006818 -0.012956 -0.010976
   vertex 0.004352 -0.018582 -0.006514
   vertex 0.003603 -0.01955 -0.011747
  endloop
 endfacet
 facet normal 0.160236 -0.0225275 0.986822
  outer loop
   vertex -0.005311 -0.010727 -0.013736
   vertex -0.00138 -0.010958 -0.01392
   vertex -0.005215 -0.017565 -0.012461
  endloop
 endfacet
 facet normal -0.404193 -0.814246 0.416692
  outer loop
   vertex -0.001554 -0.017921 -0.013754
   vertex -0.005215 -0.017565 -0.012461
   vertex -0.00138 -0.010958 -0.01392
  endloop
 endfacet
 facet normal 0.345146 -0.285439 0.894091
  outer loop
   vertex 0.006818 -0.012956 -0.010976
   vertex 0.003603 -0.01955 -0.011747
   vertex -0.00138 -0.010958 -0.01392
  endloop
 endfacet
 facet normal -0.984735 0.0254347 -0.172194
  outer loop
   vertex -0.00138 -0.010958 -0.01392
   vertex 0.003603 -0.01955 -0.011747
   vertex -0.001554 -0.017921 -0.013754
  endloop
 endfacet
 facet normal -0.404193 -0.814246 0.416692
  outer loop
   vertex -0.006936 -0.010934 -0.005604
   vertex -0.002064 -0.010647 -0.002618
   vertex -0.005372 -0.005266 -0.005608
  endloop
 endfacet
 facet normal 0.160236 -0.0225275 0.986822
  outer loop
   vertex -0.001241 -0.005737 -0.003242
   vertex -0.005372 -0.005266 -0.005608
   vertex -0.002064 -0.010647 -0.002618
  endloop
 endfacet
 facet normal 0.160236 -0.0225275 0.986822
  outer loop
   vertex 0.007744 -0.005829 0.000117
   vertex -0.001241 -0.005737 -0.003242
   vertex 0.005745 -0.010896 8.6e-05
  endloop
 endfacet
 facet normal -0.404193 -0.814246 0.416692
  outer loop
   vertex -0.002064 -0.010647 -0.002618
   vertex 0.005745 -0.010896 8.6e-05
   vertex -0.001241 -0.005737 -0.003242
  endloop
 endfacet
 facet normal 0.345146 -0.285439 0.894091
  outer loop
   vertex -0.006556 -0.004279 -0.009799
   vertex -0.007572 -0.010828 -0.009933
   vertex -0.005372 -0.005266 -0.005608
  endloop
 endfacet
 facet normal -0.984735 0.0254347 -0.172194
  outer loop
   vertex -0.006936 -0.010934 -0.005604
   vertex -0.005372 -0.005266 -0.005608
   vertex -0.007572 -0.010828 -0.009933
  endloop
 endfacet
 facet normal -0.984735 0.0254347 -0.172194
  outer loop
   vertex 0.007245 -0.012405 -0.004544
   vertex 0.007914 -0.005838 -0.003298
   vertex 0.005745 -0.010896 8.6e-05
  endloop
 endfacet
 facet normal 0.345146 -0.285439 0.894091
  outer loop
   vertex 0.007744 -0.005829 0.000117
   vertex 0.005745 -0.010896 8.6e-05
   vertex 0.007914 -0.005838 -0.003298
  endloop
 endfacet
 facet normal -0.404193 -0.814246 0.416692
  outer loop
   vertex -0.005311 -0.010727 -0.013736
   vertex -0.007572 -0.010828 -0.009933
   vertex -0.005659 -0.004116 -0.012208
  endloop
 endfacet
 facet normal 0.160236 -0.0225275 0.986822
  outer loop
   vertex -0.006556 -0.004279 -0.009799
   vertex -0.005659 -0.004116 -0.012208
   vertex -0.007572 -0.010828 -0.009933
  endloop
 endfacet
 facet normal 0.160236 -0.0225275 0.986822
  outer loop
   vertex 0.005957 -0.006144 -0.012436
   vertex 0.007914 -0.005838 -0.003298
   vertex 0.006818 -0.012956 -0.010976
  endloop
 endfacet
 facet normal -0.404193 -0.814246 0.416692
  outer loop
   vertex 0.007245 -0.012405 -0.004544
   vertex 0.006818 -0.012956 -0.010976
   vertex 0.007914 -0.005838 -0.003298
  endloop
 endfacet
 facet normal 0.160236 -0.0225275 0.986822
  outer loop
   vertex -0.005659 -0.004116 -0.012208
   vertex 0.00096 -0.006448 -0.013911
   vertex -0.005311 -0.010727 -0.013736
  endloop
 endfacet
 facet normal -0.404193 -0.814246 0.416692
  outer loop
   vertex -0.00138 -0.010958 -0.01392
   vertex -0.005311 -0.010727 -0.013736
   vertex 0.00096 -0.006448 -0.013911
  endloop
 endfacet
 facet normal -0.404193 -0.814246 0.416692
  outer loop
   vertex 0.006818 -0.012956 -0.010976
   vertex -0.00138 -0.010958 -0.01392
   vertex 0.005957 -0.006144 -0.012436
  endloop
 endfacet
 facet normal 0.160236 -0.0225275 0.986822
  outer loop
   vertex 0.00096 -0.006448 -0.013911
   vertex 0.005957 -0.006144 -0.012436
   vertex -0.00138 -0.010958 -0.01392
  endloop
 endfacet
 facet normal -0.27207033614124843 0.73481380928181561 0.62131022676335834
  outer loop
   vertex 0.00044599999091587961 -0.0024759999942034483 -0.0063599999994039536
   vertex -0.0053719999268651009 -0.0052660000510513783 -0.005607999861240387
   vertex -0.0012410000199452043 -0.0057370001450181007 -0.0032420000061392784
  endloop
 endfacet
 facet normal -0.23189539800221365 0.73223801953908363 0.64035303319877812
  outer loop
   vertex 0.00044599999091587961 -0.0024759999942034483 -0.0063599999994039536
   vertex -0.0012410000199452043 -0.0057370001450181007 -0.0032420000061392784
   vertex 0.0077439998276531696 -0.0058289999142289162 0.00011700000322889537
  endloop
 endfacet
 facet normal -0.37772206537984004 0.87176418630300523 0.31201481504032286
  outer loop
   vertex 0.00044599999091587961 -0.0024759999942034483 -0.0063599999994039536
   vertex -0.0065560000948607922 -0.0042790002189576626 -0.0097989998757839203
   vertex -0.0053719999268651009 -0.0052660000510513783 -0.005607999861240387
  endloop
 endfacet
 facet normal 0.40439193773295212 0.91441409187974909 0.01772087098090817
  outer loop
   vertex 0.00044599999091587961 -0.0024759999942034483 -0.0063599999994039536
   vertex 0.0077439998276531696 -0.0058289999142289162 0.00011700000322889537
   vertex 0.0079140001907944679 -0.0058380002155900002 -0.0032979999668896198
  endloop
 endfacet
 facet normal -0.23861429539868059 0.97083823208741127 -0.02315912668433175
  outer loop
   vertex 0.00044599999091587961 -0.0024759999942034483 -0.0063599999994039536
   vertex -0.0056590000167489052 -0.0041160001419484615 -0.0122079998254776
   vertex -0.0065560000948607922 -0.0042790002189576626 -0.0097989998757839203
  endloop
 endfacet
 facet normal 0.44970962657526287 0.88425404826286325 -0.12592072862033271
  outer loop
   vertex 0.00044599999091587961 -0.0024759999942034483 -0.0063599999994039536
   vertex 0.0079140001907944679 -0.0058380002155900002 -0.0032979999668896198
   vertex 0.0059569999575614929 -0.0061440002173185349 -0.012435999698936939
  endloop
 endfacet
 facet normal 0.19296315644449522 0.87374276659969585 -0.44647373726758743
  outer loop
   vertex 0.00044599999091587961 -0.0024759999942034483 -0.0063599999994039536
   vertex 0.00095999997574836016 -0.0064480002038180828 -0.013911000452935696
   vertex -0.0056590000167489052 -0.0041160001419484615 -0.0122079998254776
  endloop
 endfacet
 facet normal 0.081866377729862619 0.88433947513981082 -0.45961025761707641
  outer loop
   vertex 0.00044599999091587961 -0.0024759999942034483 -0.0063599999994039536
   vertex 0.0059569999575614929 -0.0061440002173185349 -0.012435999698936939
   vertex 0.00095999997574836016 -0.0064480002038180828 -0.013911000452935696
  endloop
 endfacet
endsolid
