<?xml version="1.0"?>
<VTKFile type="PolyData" version="0.1" byte_order="LittleEndian" header_type="UInt32" compressor="vtkZLibDataCompressor">
  <PolyData>
    <Piece NumberOfPoints="727" NumberOfVerts="0" NumberOfLines="0" NumberOfStrips="0" NumberOfPolys="1450">
      <PointData>
      </PointData>
      <CellData>
      </CellData>
      <Points>
        <DataArray type="Float32" Name="Points" NumberOfComponents="3" format="ascii" RangeMin="0.03149165917607597" RangeMax="0.3800473260536354">
          -0.013478906 -0.21994002 -0.031384975 -0.0070421104 -0.22225314 -0.031203527
          -0.0038784142 -0.22196268 -0.02907365 -0.0032819628 -0.22031759 -0.025976533
          -0.004546902 -0.21856682 -0.022893371 -0.006967379 -0.21795934 -0.020805357
          -0.0133834295 -0.20893817 -0.032093998 -0.006640846 -0.21291874 -0.03150501
          -0.0034968925 -0.21321155 -0.029138317 -0.00317993 -0.2116556 -0.025942609
          -0.004918319 -0.2100899 -0.022866577 -0.007940421 -0.21035346 -0.020858916
          -0.013615462 -0.19591632 -0.032984346 -0.0072756894 -0.19970246 -0.032351423
          -0.0037768534 -0.1999061 -0.030239226 -0.002880912 -0.19831312 -0.027321607
          -0.0043498236 -0.19670944 -0.024272421 -0.007945547 -0.19688098 -0.021765525
          -0.013715095 -0.18121776 -0.03401797 -0.008196946 -0.18387002 -0.033467565
          -0.0042565498 -0.18385053 -0.03175394 -0.002476303 -0.18242703 -0.029215293
          -0.0034386048 -0.18086731 -0.026189832 -0.007725854 -0.18043913 -0.023015762
          -0.013222419 -0.16518573 -0.03515681 -0.008654922 -0.16668713 -0.03457823
          -0.0044742343 -0.16684906 -0.033060018 -0.002057497 -0.16613424 -0.030725434
          -0.0027818508 -0.16500534 -0.027697744 -0.008024436 -0.16392508 -0.024100209
          -0.011677528 -0.14816348 -0.036362823 -0.00789992 -0.14941947 -0.035408217
          -0.003968159 -0.15070592 -0.033535026 -0.0017158879 -0.15157163 -0.0309538
          -0.0029767503 -0.1515654 -0.027875088 -0.00958439 -0.15023606 -0.02450944
          -0.011865759 -0.2189106 -0.020049673 -0.015412228 -0.21977505 -0.022062246
          -0.01716066 -0.22036193 -0.02551062 -0.016664928 -0.22048052 -0.029062347
          -0.012566065 -0.21057308 -0.020617383 -0.01575605 -0.21169515 -0.02287652
          -0.017177513 -0.21256588 -0.02637993 -0.016497592 -0.2120315 -0.029871222
          -0.012632706 -0.19783592 -0.02130031 -0.015751785 -0.19912231 -0.023564698
          -0.017094277 -0.19983476 -0.027183577 -0.016451672 -0.19906789 -0.03078183
          -0.012512884 -0.18249644 -0.022180092 -0.01562774 -0.1838846 -0.024413433
          -0.016948005 -0.18432195 -0.028164828 -0.016351262 -0.18352689 -0.031883325
          -0.012653804 -0.16635191 -0.023338363 -0.015612218 -0.16781008 -0.025709365
          -0.016775746 -0.1681809 -0.029566947 -0.016020456 -0.16734567 -0.033264853
          -0.013502669 -0.15119961 -0.024856756 -0.015933523 -0.15272681 -0.027739141
          -0.01661455 -0.15356499 -0.031633206 -0.015283353 -0.15246144 -0.03501556
          -0.009657763 -0.13900992 -0.02520151 -0.013628552 -0.13860016 -0.0260381
          -0.0158602 -0.13974161 -0.029209819 -0.01618109 -0.14140321 -0.033100322
          -0.014419599 -0.14255384 -0.036093265 -0.010404107 -0.14216235 -0.036572296
          -0.009686688 -0.12594181 -0.026028086 -0.0136040645 -0.12635185 -0.027015869
          -0.015576044 -0.12728067 -0.03043135 -0.015489112 -0.1286282 -0.034422025
          -0.013229754 -0.13029435 -0.037135392 -0.008684457 -0.1321791 -0.03671895
          -0.009504231 -0.11210306 -0.026898745 -0.013431422 -0.11382193 -0.028010724
          -0.015124466 -0.11461099 -0.031613387 -0.014597015 -0.11527983 -0.035661094
          -0.011862719 -0.11663807 -0.038108204 -0.0069352305 -0.1194953 -0.036909077
          -0.008943456 -0.09856504 -0.027723074 -0.013112838 -0.10037767 -0.02924332
          -0.014548884 -0.100999676 -0.032965574 -0.013563201 -0.1013981 -0.0368803
          -0.010467397 -0.10254004 -0.038977947 -0.0055730813 -0.10539254 -0.037248977
          -0.00783743 -0.08639909 -0.028410653 -0.012650526 -0.08538631 -0.030934313
          -0.01389271 -0.085713774 -0.03469757 -0.012446069 -0.08702294 -0.03814242
          -0.009192691 -0.08895531 -0.03971088 -0.005014663 -0.09115238 -0.037844945
          -0.006212487 -0.14475575 -0.035035368 -0.0028650786 -0.14544667 -0.0329288
          -0.0015388461 -0.14452565 -0.030453613 -0.0034107529 -0.14228322 -0.027810842
          -0.004486748 -0.13394473 -0.034773163 -0.0019940718 -0.13404855 -0.03247607
          -0.0017004735 -0.13264582 -0.030082786 -0.004099997 -0.1298918 -0.027848419
          -0.0029856162 -0.119793385 -0.03456527 -0.001421092 -0.11945059 -0.03209881
          -0.0020882748 -0.11821953 -0.029803224 -0.004833782 -0.115852825 -0.027972028
          -0.0019720048 -0.10510863 -0.03435535 -0.001212092 -0.10459185 -0.03171898
          -0.0025897548 -0.10353427 -0.029576832 -0.0054014055 -0.10162797 -0.028165873
          -0.0017088265 -0.09269744 -0.034087073 -0.0014330249 -0.09241137 -0.031258542
          -0.003092418 -0.09087743 -0.029365517 -0.0055921664 -0.08867891 -0.028414166
          -0.00955702 -0.31723902 -0.02700038 -0.003965627 -0.31836042 -0.027387002
          -0.0011331565 -0.31711861 -0.025113637 -0.0007204687 -0.3145382 -0.021687096
          -0.002388423 -0.31164378 -0.018614199 -0.005797879 -0.30945992 -0.017401759
          -0.009740972 -0.30125523 -0.027876267 -0.004645164 -0.3023128 -0.028415898
          -0.0021649844 -0.30132887 -0.026222223 -0.0019588228 -0.2992936 -0.022809638
          -0.0036850686 -0.29719713 -0.019692529 -0.007002111 -0.29602963 -0.018385291
          -0.010127034 -0.28090626 -0.028844634 -0.0049260105 -0.28237087 -0.029016215
          -0.0026600086 -0.2809796 -0.02663635 -0.0027810046 -0.27823693 -0.023171576
          -0.004740975 -0.27564728 -0.020088423 -0.007991896 -0.27471504 -0.018853426
          -0.010813308 -0.25881928 -0.029813515 -0.005174737 -0.26084203 -0.02948374
          -0.0029136448 -0.25900963 -0.026892187 -0.0032401588 -0.25538054 -0.023401186
          -0.0053644064 -0.25201306 -0.020373067 -0.008496515 -0.25096557 -0.019170154
          -0.011897898 -0.23762149 -0.03069095 -0.0057579135 -0.24003366 -0.030114248
          -0.003221308 -0.23835774 -0.027525896 -0.00338943 -0.23473665 -0.024126748
          -0.0053636273 -0.23131327 -0.021117652 -0.008245249 -0.23023053 -0.019699465
          -0.010529784 -0.3101966 -0.017789742 -0.013180892 -0.31120738 -0.019557374
          -0.0138419615 -0.31262773 -0.022090876 -0.012603751 -0.31459314 -0.02477647
          -0.011871776 -0.2964004 -0.018715737 -0.014384489 -0.2969918 -0.020436473
          -0.014736255 -0.2979204 -0.022941085 -0.013123081 -0.2993027 -0.025623154
          -0.013008423 -0.27456972 -0.019499453 -0.015513709 -0.27541524 -0.021507202
          -0.015724245 -0.2769525 -0.02419106 -0.013856524 -0.27888253 -0.026865408
          -0.013607672 -0.25050858 -0.020046163 -0.016264265 -0.25180322 -0.022388868
          -0.01659696 -0.25411168 -0.025357906 -0.014736419 -0.25669628 -0.028112909
          -0.013337469 -0.2300209 -0.020261144 -0.016331868 -0.2314813 -0.02270078
          -0.017145423 -0.23378561 -0.025958724 -0.015695108 -0.2361077 -0.02897533
          -0.005516937 -0.31240848 -0.016996512 -0.0023561737 -0.315305 -0.018016087
          -0.00039540968 -0.31855994 -0.020935584 -0.0003060681 -0.32136148 -0.024370305
          -0.002759572 -0.32289767 -0.026935553 -0.008427344 -0.3223566 -0.027246624
          -0.005157166 -0.31617045 -0.016520225 -0.002177718 -0.3190193 -0.017625084
          -0.00014791488 -0.32184947 -0.020555895 0.00013123278 -0.32435235 -0.024023466
          -0.0021412855 -0.32621947 -0.026738612 -0.00776648 -0.3271422 -0.02741214
          -0.0047316053 -0.32057673 -0.016044058 -0.0019253632 -0.32285222 -0.017334133
          0.00012350235 -0.32497832 -0.020287786 0.0005225132 -0.32709998 -0.023751983
          -0.001620809 -0.32936212 -0.026573695 -0.0071989424 -0.33190978 -0.027599888
          -0.004253292 -0.32545817 -0.015639178 -0.001671416 -0.3268693 -0.01703618
          0.0005203287 -0.3285182 -0.019871019 0.0012115401 -0.33061302 -0.023234723
          -0.00070818403 -0.33336198 -0.026218317 -0.0063492456 -0.3369733 -0.027912825
          -0.003735265 -0.33064568 -0.015376754 -0.0014881834 -0.33113614 -0.016624166
          0.0011440509 -0.33304074 -0.019045355 0.0025420804 -0.33590022 -0.022150554
          0.001086548 -0.33925533 -0.025449995 -0.0048419037 -0.34264678 -0.028453913
          -0.012184928 -0.31928638 -0.025081387 -0.01351546 -0.3173213 -0.022210699
          -0.01267616 -0.31589654 -0.01939762 -0.009924245 -0.3144472 -0.017405204
          -0.011798495 -0.3241628 -0.025164258 -0.013120447 -0.3220902 -0.022097917
          -0.012165461 -0.3204101 -0.019066328 -0.0093666585 -0.31860828 -0.016922694
          -0.011368924 -0.32926 -0.025293512 -0.012733384 -0.3270019 -0.021985553
          -0.011766119 -0.3249354 -0.018675199 -0.008940927 -0.3228604 -0.016361637
          -0.010820687 -0.3346155 -0.02573758 -0.012430732 -0.3321239 -0.022106629
          -0.011595461 -0.3296597 -0.018335937 -0.008730954 -0.32738405 -0.015741466
          -0.010078256 -0.34026694 -0.026764892 -0.012288954 -0.33752367 -0.022694169
          -0.011770812 -0.33477023 -0.01816024 -0.008820644 -0.33235982 -0.015081603
          -0.0057166023 -0.34753397 -0.029333826 -0.01024458 -0.3443352 -0.02704892
          -0.012254865 -0.34121692 -0.022838837 -0.012013303 -0.33858773 -0.018266298
          -0.0097857425 -0.33685628 -0.01489402 -0.005838029 -0.3364312 -0.014284718
          -0.005478773 -0.3511153 -0.030035647 -0.0101993615 -0.34826335 -0.027594987
          -0.01227258 -0.34483457 -0.02316975 -0.012128552 -0.3417777 -0.018320367
          -0.010197404 -0.34004164 -0.014607261 -0.006909261 -0.3405752 -0.013590858
          -0.0050143586 -0.3540898 -0.030580437 -0.010178125 -0.35193184 -0.02816471
          -0.012403673 -0.3483848 -0.023549797 -0.012269001 -0.34487125 -0.018407121
          -0.010352113 -0.34281376 -0.014408106 -0.0072310087 -0.3436348 -0.013224178
          -0.005209302 -0.3571565 -0.030989254 -0.010416396 -0.35522106 -0.02851971
          -0.012709719 -0.35187587 -0.023841865 -0.012587096 -0.3483995 -0.018611236
          -0.010546354 -0.34607047 -0.014483335 -0.007085318 -0.34616742 -0.01311368
          -0.0069495467 -0.3610144 -0.031283166 -0.011149699 -0.35801154 -0.0284216
          -0.013252292 -0.35531598 -0.02390884 -0.013235278 -0.35289344 -0.019017385
          -0.011076609 -0.35070962 -0.015019729 -0.0067542368 -0.34873024 -0.013188367
          -0.007860928 -0.082306206 -0.028831288 -0.012597844 -0.08105654 -0.031448506
          -0.013493283 -0.08114638 -0.035310082 -0.0116455015 -0.08233178 -0.0387357
          -0.008152757 -0.08436877 -0.04004503 -0.0041133054 -0.087013446 -0.037557747
          -0.0068994407 -0.07880206 -0.028955527 -0.011890703 -0.07735456 -0.030909535
          -0.013121809 -0.0774454 -0.034728143 -0.011557921 -0.0785801 -0.038467966
          -0.008164201 -0.08026416 -0.040185608 -0.00390581 -0.082003094 -0.037937682
          -0.005878142 -0.074936576 -0.029008154 -0.011033786 -0.07376409 -0.03026323
          -0.012749072 -0.07410007 -0.033974286 -0.011703129 -0.07521125 -0.03801847
          -0.00857509 -0.076364376 -0.040272925 -0.004044086 -0.0768262 -0.03861479
          -0.0057222066 -0.06975969 -0.029213954 -0.010531777 -0.06976891 -0.030455412
          -0.012345853 -0.07059964 -0.034071047 -0.011600928 -0.07166855 -0.038066465
          -0.008733494 -0.07239233 -0.040447284 -0.0041800444 -0.07218766 -0.03921911
          -0.0073568095 -0.062321324 -0.02979771 -0.010889358 -0.06485276 -0.03243191
          -0.0118829375 -0.06643336 -0.036040958 -0.010771121 -0.06739535 -0.039291207
          -0.0079874825 -0.06807094 -0.040849 -0.003965593 -0.06879234 -0.03938069
          -0.0015841497 -0.08630666 -0.03460415 -0.0010568618 -0.0857348 -0.032023035
          -0.002168914 -0.085045606 -0.030046074 -0.004557779 -0.083986826 -0.028904933
          -0.0014803649 -0.08102961 -0.03517557 -0.000770358 -0.080474116 -0.03266931
          -0.0015724368 -0.08008526 -0.030645885 -0.0036832485 -0.0796117 -0.029332293
          -0.0013556906 -0.076419726 -0.035712436 -0.0005532058 -0.075981915 -0.03314299
          -0.0012783244 -0.07555838 -0.03106406 -0.003172739 -0.07519473 -0.029633244
          -0.0011683452 -0.07203046 -0.03612585 -0.00038509764 -0.07161081 -0.033389717
          -0.0012619158 -0.07102695 -0.0311997 -0.0032304141 -0.07037716 -0.029744783
          -0.0008765471 -0.067415275 -0.036326908 -0.00024572597 -0.06671341 -0.033355113
          -0.0014985495 -0.06605297 -0.030951912 -0.0040604374 -0.064800195 -0.02960391
          -0.0042728274 -0.062447015 -0.0402594 -0.00081907364 -0.062349144 -0.037551396
          0.00015300741 -0.062596634 -0.03451857 -0.0007152359 -0.062740825 -0.031754658
          -0.002782455 -0.062333025 -0.029853396 -0.005407301 -0.06092457 -0.029408524
          -0.0046634804 -0.058305975 -0.041006345 -0.00071303267 -0.058709104 -0.038359053
          0.0005174018 -0.059399843 -0.035248283 -0.00010460553 -0.05986628 -0.032296438
          -0.0017114829 -0.059596494 -0.030125922 -0.0034356588 -0.05807857 -0.029359136
          -0.004931724 -0.055204224 -0.041656468 -0.00058410026 -0.05561124 -0.03903001
          0.00088299374 -0.05641073 -0.035849117 0.0004931622 -0.056868035 -0.03275399
          -0.0007299905 -0.05624851 -0.03038483 -0.0017628599 -0.0538175 -0.02938184
          -0.0048717316 -0.05197676 -0.042244725 -0.0004579524 -0.052171648 -0.039844416
          0.0012853199 -0.052917004 -0.036625944 0.0012378878 -0.053184796 -0.033304047
          0.00027955326 -0.051946986 -0.030593464 -0.0007098812 -0.048175544 -0.029208928
          -0.004277676 -0.047458578 -0.04280606 -0.00036026517 -0.047506407 -0.04108241
          0.001759917 -0.048206374 -0.037883636 0.0022893916 -0.048255257 -0.034123354
          0.0014346793 -0.046349835 -0.030715168 -0.00059769937 -0.04118688 -0.028572693
          -0.006269704 -0.05033222 -0.042796575 -0.0075963573 -0.05112563 -0.042732548
          -0.008495979 -0.050843906 -0.04225045 -0.009206913 -0.050492138 -0.040986747
          -0.009967503 -0.05107542 -0.03857791 -0.0064680544 -0.054201126 -0.042092916
          -0.007659063 -0.054701872 -0.041916974 -0.008683101 -0.05448409 -0.041353367
          -0.009778512 -0.054552875 -0.040038563 -0.0064456076 -0.057164956 -0.041603852
          -0.007814238 -0.057758674 -0.04155751 -0.009275958 -0.057990473 -0.041153908
          -0.0064081913 -0.06038871 -0.041294433 -0.008267709 -0.06146104 -0.041619204
          -0.006561632 -0.065037385 -0.041129712 -0.010498837 -0.056286287 -0.038687512
          -0.011137047 -0.059293367 -0.03707062 -0.0112485215 -0.060819604 -0.03452091
          -0.010199646 -0.06158794 -0.03183205 -0.010357374 -0.05834405 -0.039709248
          -0.011157879 -0.060842466 -0.03780259 -0.011546411 -0.06277105 -0.03511225
          -0.01001975 -0.060945537 -0.040613234 -0.011099948 -0.06351885 -0.038644362
          -0.00929383 -0.06416356 -0.04109473 -0.008695183 -0.05851525 -0.030526457
          -0.010152106 -0.0562249 -0.03222424 -0.0104116835 -0.053330578 -0.033708207
          -0.010107528 -0.049109332 -0.034184683 -0.006852257 -0.054976217 -0.02981825
          -0.008400899 -0.05214676 -0.030782545 -0.008715199 -0.048867248 -0.03145835
          -0.0049918448 -0.05100502 -0.02943972 -0.0063158777 -0.04861936 -0.029928112
          -0.0034349242 -0.04663584 -0.029123161 0.0009013312 -0.039551966 -0.02883606
          0.002304547 -0.03868973 -0.029471977 0.0036759723 -0.0377504 -0.030213231
          0.005079632 -0.035884224 -0.030792616 0.006579551 -0.032241438 -0.030942915
          0.002480098 -0.04376928 -0.03126 0.0035103648 -0.04199162 -0.032074075
          0.0045895036 -0.0401671 -0.032890186 0.0057815393 -0.037445955 -0.03344112
          0.0030514346 -0.045108236 -0.034811154 0.0038789879 -0.042794332 -0.035664897
          0.004836076 -0.040463794 -0.03641737 0.00240882 -0.044872057 -0.038575914
          0.0032038959 -0.042401087 -0.03933083 0.00034573357 -0.044363968 -0.04164067
          -0.009820889 -0.047659658 -0.03872043 -0.009823819 -0.04402832 -0.037680797
          -0.009910466 -0.040297527 -0.03593942 -0.010015005 -0.036583398 -0.0339767
          -0.01007161 -0.033002056 -0.032273028 -0.0100503275 -0.046260696 -0.03448698
          -0.009944133 -0.043048885 -0.03372169 -0.009723119 -0.039590027 -0.032369204
          -0.0093214605 -0.036000237 -0.03090993 -0.008700514 -0.04536416 -0.031626053
          -0.008438298 -0.041350305 -0.03084072 -0.007862724 -0.036941804 -0.02958275
          -0.0062968093 -0.04324024 -0.029666841 -0.0058316733 -0.03720276 -0.028567087
          -0.0033645749 -0.038159117 -0.028138537 -0.0052040545 -0.043989792 -0.043273315
          -0.006655564 -0.04146046 -0.043364096 -0.0082232775 -0.039219864 -0.042167947
          -0.009498268 -0.0366173 -0.03877441 -0.00692064 -0.047308628 -0.043304842
          -0.008034454 -0.0444431 -0.042611256 -0.009202218 -0.041084927 -0.03980536
          -0.008103412 -0.04835649 -0.04279889 -0.009011091 -0.044964023 -0.040838
          -0.008990713 -0.048138466 -0.041391928 -0.0013077022 -0.036022898 -0.027849413
          -0.0034697202 -0.03417213 -0.027465425 -0.0054484536 -0.03262365 -0.027408503
          -0.0071076327 -0.030001452 -0.027403047 0.00066032127 -0.034746997 -0.028026236
          -0.0011896511 -0.032089453 -0.026923107 -0.0031091007 -0.029341092 -0.025886992
          0.00260352 -0.033481646 -0.028401792 0.0010725592 -0.030104972 -0.026672916
          0.004585919 -0.031377092 -0.028708873 0.008981699 -0.03034277 -0.034572367
          0.010500593 -0.028270757 -0.03658194 0.011086281 -0.02673292 -0.038095806
          0.01068881 -0.026436778 -0.04023813 0.0092582265 -0.028089851 -0.04413309
          0.0075161736 -0.034287747 -0.036929823 0.0085341865 -0.031511065 -0.03914153
          0.008785626 -0.029823419 -0.041200403 0.0082205385 -0.029932337 -0.044230618
          0.006125817 -0.036522616 -0.03944194 0.00686557 -0.033517826 -0.04153239
          0.007005381 -0.032156944 -0.043812886 0.0042713643 -0.038153507 -0.041567877
          0.004955477 -0.035397183 -0.043213684 0.0014135505 -0.040286556 -0.04276681
          0.00978577 -0.025782198 -0.045705553 0.008853881 -0.02401227 -0.04749576
          0.0069171567 -0.022705117 -0.049120665 0.0044301986 -0.021785796 -0.05019721
          0.0018476062 -0.021179352 -0.050342355 0.0071495636 -0.030301493 -0.045784608
          0.005059393 -0.02985176 -0.047440786 0.0024046274 -0.028508192 -0.048816107
          -0.00036013368 -0.02619584 -0.049527522 0.0045773825 -0.034039482 -0.045239154
          0.0015704278 -0.03374652 -0.046652067 -0.0015608835 -0.031203106 -0.04766857
          0.0014119516 -0.03762967 -0.044402998 -0.0022702916 -0.03633005 -0.0454634
          -0.0030040063 -0.041705575 -0.04360993 -0.004996129 -0.0387578 -0.044127606
          -0.0052673197 -0.033871718 -0.04567587 -0.005501979 -0.029202638 -0.0472202
          -0.005184459 -0.024621665 -0.048062686 -0.0071689365 -0.03646585 -0.04356804
          -0.008100588 -0.031785574 -0.04411033 -0.008934869 -0.027290734 -0.04429306
          -0.009113503 -0.03417901 -0.041020785 -0.0103611685 -0.029420914 -0.039856337
          -0.010420901 -0.031246569 -0.035575375 -0.0000055685514 -0.01769973 -0.049549334
          -0.0024486636 -0.0147578055 -0.048878346 -0.0051160264 -0.012577142 -0.04780003
          -0.007642004 -0.011381299 -0.045785036 -0.009660944 -0.0113938395 -0.042304005
          -0.006459594 -0.020365037 -0.04775168 -0.008094896 -0.017322855 -0.047011755
          -0.00972471 -0.01571868 -0.04531356 -0.010983387 -0.015776074 -0.042127736
          -0.009738765 -0.023059543 -0.044140995 -0.010673074 -0.020719549 -0.04300906
          -0.0113721425 -0.02049431 -0.040367913 -0.010800626 -0.02601761 -0.039540138
          -0.011140743 -0.025182249 -0.037693124 -0.010602722 -0.029473597 -0.034771964
          0.011241041 -0.024771784 -0.04238679 0.012557396 -0.0212679 -0.04086037
          0.012472612 -0.017987931 -0.039239712 0.010252011 -0.015341606 -0.03721071
          0.0051609157 -0.013738657 -0.034459256 0.011654739 -0.021929134 -0.04491087
          0.011665853 -0.017972166 -0.04388466 0.009084432 -0.014321025 -0.042312816
          0.0031758011 -0.011385442 -0.03988122 0.010224063 -0.019760838 -0.04720689
          0.0085449945 -0.015487416 -0.04623509 0.0030819983 -0.011601733 -0.044266243
          0.007403612 -0.018191949 -0.048891798 0.003649422 -0.013738701 -0.047528595
          0.0036479863 -0.017147517 -0.049582545 0.007084718 -0.028167844 -0.029845309
          0.0077581555 -0.023971835 -0.029819792 0.008037146 -0.019962344 -0.030694712
          0.007358972 -0.016448308 -0.032298416 0.010280501 -0.025911937 -0.032652028
          0.011300299 -0.021728842 -0.032566078 0.011478375 -0.01810242 -0.034142856
          0.012071785 -0.024122277 -0.034928404 0.012916696 -0.020591691 -0.035871547
          0.012408615 -0.023506386 -0.0377986 0.000002649845 -0.009792352 -0.03965737
          -0.0033232728 -0.00777962 -0.04267858 -0.0055522486 -0.007505559 -0.04388521
          -0.0074196737 -0.008775267 -0.043639574 -0.000657417 -0.009590074 -0.0437579
          -0.0032478597 -0.009120863 -0.04579255 -0.0053309235 -0.009782906 -0.046347488
          -0.00005875207 -0.011273097 -0.04683056 -0.0025462948 -0.011663201 -0.047887713
          0.0005685592 -0.014192592 -0.048789617 -0.0020427287 -0.34740728 -0.028205328
          0.0019060501 -0.34975693 -0.027378412 0.005890825 -0.35120642 -0.025801467
          0.008797987 -0.35326657 -0.02330279 0.009513931 -0.35744813 -0.019710682
          0.003414648 -0.34510657 -0.025323888 0.0061340295 -0.3483962 -0.024386723
          0.008131085 -0.3506351 -0.022466801 0.0082922075 -0.35333398 -0.019392423
          0.004400872 -0.34230414 -0.022092927 0.0058926237 -0.3459958 -0.02099152
          0.0059037274 -0.34848604 -0.018674627 0.0025353013 -0.3394593 -0.019002214
          0.00280119 -0.34301496 -0.017682567 -0.000562707 -0.3370313 -0.016541518
          -0.0011846113 -0.35845914 -0.030670777 0.0039080963 -0.35850212 -0.028727539
          0.007764684 -0.35946605 -0.025933245 0.009821259 -0.3596738 -0.022767693
          -0.00094164745 -0.35510406 -0.03018766 0.0031913803 -0.35488975 -0.02831952
          0.0066258893 -0.35483631 -0.025864631 -0.0015943078 -0.35260975 -0.029629754
          0.0022287173 -0.3522077 -0.027876832 -0.0022566493 -0.35027716 -0.028975997
          -0.0018640676 -0.34163615 -0.015113643 0.0017070575 -0.3467134 -0.015750838
          0.0044226483 -0.35155234 -0.01607103 0.005830006 -0.3560424 -0.015948946
          -0.0027835427 -0.345292 -0.014124707 0.00034516442 -0.3501554 -0.0142988125
          0.0020241619 -0.3550548 -0.0139879 -0.0036031792 -0.34855613 -0.0135037135
          -0.0015665364 -0.35389832 -0.013255491 -0.004605024 -0.3519858 -0.0131796645
          0.007940037 -0.3587741 -0.017512525 0.0074512544 -0.3610031 -0.016792217
          0.007317213 -0.3637046 -0.016989687 0.0068075405 -0.36644793 -0.017544854
          0.0051918663 -0.3688025 -0.017897643 0.0053146756 -0.35789332 -0.015183781
          0.0052940706 -0.36082995 -0.015021369 0.005239715 -0.36428186 -0.015391248
          0.004623133 -0.3676787 -0.01622296 0.00291585 -0.37045002 -0.017446043
          0.0021536895 -0.35758528 -0.013787407 0.0022296296 -0.36092052 -0.013919236
          0.0021312316 -0.36451823 -0.014419131 0.0017377456 -0.36783597 -0.01532284
          0.0009284211 -0.37033138 -0.016666109 -0.0011672619 -0.3572292 -0.013125297
          -0.0011675545 -0.36084202 -0.013367897 -0.0013210078 -0.36432913 -0.0139572155
          -0.001381215 -0.36728296 -0.014867172 -0.0011017697 -0.36929587 -0.016071688
          -0.0042725173 -0.35620433 -0.012999342 -0.0043229666 -0.3601615 -0.013249432
          -0.0044297744 -0.36363012 -0.01388938 -0.004266342 -0.366383 -0.01487863
          -0.003506072 -0.36819288 -0.016176628 -0.0067864168 -0.35388988 -0.013211438
          -0.006662092 -0.35844615 -0.0134459175 -0.006507838 -0.36233672 -0.014099501
          -0.006450228 -0.36549932 -0.015379888 -0.0066158357 -0.3678717 -0.017494775
          -0.010704092 -0.35627678 -0.014769046 -0.009715715 -0.36067235 -0.014993423
          -0.008695621 -0.36398178 -0.015700314 -0.008227949 -0.36629066 -0.016897175
          -0.008896842 -0.36768442 -0.018591458 -0.013060238 -0.35721526 -0.017829832
          -0.012011958 -0.36082584 -0.017224176 -0.010789319 -0.36369264 -0.01723052
          -0.0100912 -0.36578313 -0.017878965 -0.010616482 -0.36706468 -0.019199615
          -0.013840135 -0.35791457 -0.021784335 -0.013360277 -0.36054996 -0.020182332
          -0.012443119 -0.3630168 -0.019256791 -0.011719064 -0.36510977 -0.019161671
          -0.011818514 -0.3666235 -0.020050937 -0.013029061 -0.35958403 -0.026023094
          -0.013570123 -0.36148804 -0.023912044 -0.0133112045 -0.36350185 -0.022345802
          -0.012790622 -0.3654037 -0.021581708 -0.012546695 -0.36697185 -0.02187711
          -0.010612295 -0.3634329 -0.02993664 -0.012450955 -0.36528343 -0.028457468
          -0.013047763 -0.3666953 -0.027064227 -0.012984959 -0.36779794 -0.025975486
          -0.012844781 -0.36872074 -0.025409825 -0.007306222 -0.36560234 -0.031755492
          -0.0072673396 -0.36850354 -0.03200597 -0.0070906514 -0.37031105 -0.03202014
          -0.0070339073 -0.37161797 -0.03178355 -0.0073548574 -0.37301734 -0.03128175
          -0.0018789773 -0.36513853 -0.031557344 -0.0029756986 -0.3692187 -0.031891245
          -0.0040395386 -0.37157312 -0.03179066 -0.00463526 -0.3730752 -0.03137375
          -0.004327627 -0.37459835 -0.030758692 0.003070557 -0.3647626 -0.029663714
          0.0014146332 -0.36892837 -0.03023601 -0.00040017706 -0.37163424 -0.030471584
          -0.0017143757 -0.37351516 -0.030397596 -0.0018684646 -0.37520602 -0.030041205
          0.007015756 -0.36434272 -0.026799174 0.005282553 -0.3681257 -0.027724734
          0.0031615915 -0.37104303 -0.028535774 0.0012493886 -0.37332276 -0.029058147
          0.00014246118 -0.37519297 -0.029117705 0.009429994 -0.36374703 -0.023688296
          0.008006957 -0.3673039 -0.025041895 0.005979926 -0.370348 -0.026456084
          0.0037766758 -0.3728828 -0.027558459 0.0018249827 -0.37491184 -0.027976615
          0.009786646 -0.36284366 -0.021055652 0.008966745 -0.36695623 -0.02287197
          0.0073889857 -0.37009773 -0.02470537 0.0053881286 -0.3725801 -0.026101587
          0.0032989318 -0.37471524 -0.026606353 0.008855941 -0.36442146 -0.01976246
          0.008229543 -0.36885223 -0.021812739 0.0063956035 -0.3723783 -0.02320909
          0.00368888 -0.37531158 -0.023497248 0.0081301825 -0.36640573 -0.019227559
          0.0068171243 -0.3706581 -0.020792231 0.0038468388 -0.37407216 -0.021031966
          0.0068790005 -0.36836585 -0.018890865 0.003999117 -0.37194327 -0.019250369
          0.0043720226 -0.36987126 -0.018192308 -0.010505233 -0.3669093 -0.030749103
          -0.012051808 -0.36818162 -0.029329194 -0.012528186 -0.36954877 -0.027714338
          -0.012516604 -0.3711401 -0.026123116 -0.010121195 -0.36933842 -0.031103622
          -0.011494267 -0.37067214 -0.029506885 -0.011968795 -0.37263405 -0.027434329
          -0.009717932 -0.3713134 -0.030985747 -0.011036082 -0.373348 -0.028976087
          -0.009553194 -0.37342733 -0.03038102 -0.006734138 -0.3699296 -0.019287396
          -0.006554913 -0.37207586 -0.02057277 -0.0063527115 -0.37419978 -0.021689458
          -0.006402084 -0.37619057 -0.022976015 -0.006977581 -0.37793756 -0.024771001
          -0.009349038 -0.3693451 -0.020223146 -0.009345754 -0.37149054 -0.0215503
          -0.009161541 -0.37401 -0.022911478 -0.009070949 -0.37679276 -0.024645237
          -0.011164244 -0.36898553 -0.02100777 -0.011098573 -0.3717875 -0.022714105
          -0.0106940195 -0.37535986 -0.024657171 -0.012223513 -0.36946186 -0.02237296
          -0.011857127 -0.3735777 -0.02479587 -0.012570603 -0.37138507 -0.025050398
          -0.0066172057 -0.37903205 -0.026960917 -0.0069243377 -0.37841263 -0.028594676
          -0.0074493852 -0.37675396 -0.029784553 -0.007742756 -0.37473065 -0.03064282
          -0.00898874 -0.37856552 -0.026663048 -0.009341439 -0.37814578 -0.028216766
          -0.009679455 -0.37620816 -0.029418666 -0.010755596 -0.3771355 -0.026431413
          -0.011019481 -0.37624 -0.027833628 -0.011928106 -0.37468073 -0.02625508
          -0.0051439367 -0.37826514 -0.024832793 -0.0034033582 -0.37837276 -0.025567373
          -0.0015519507 -0.37799433 -0.026454594 0.000614181 -0.37686384 -0.026974304
          -0.0046894145 -0.37873554 -0.027420614 -0.0027757164 -0.37812737 -0.028089898
          -0.00067221565 -0.37694147 -0.028448615 -0.004701584 -0.37783143 -0.029196024
          -0.0024139495 -0.3768469 -0.02954375 -0.0047308523 -0.3762275 -0.030271292
          -0.0039855777 -0.36956072 -0.017643945 -0.0019315188 -0.37060332 -0.017305262
          -0.00014112388 -0.37182456 -0.017678797 0.0018164442 -0.3719915 -0.018171996
          -0.0043739104 -0.37181795 -0.019304615 -0.0024780787 -0.3727551 -0.018958673
          -0.0006173457 -0.37380803 -0.019114567 0.0014583619 -0.3738972 -0.019351924
          -0.0046862764 -0.37439847 -0.021097243 -0.0028399231 -0.37516087 -0.020944864
          -0.00080683216 -0.3758112 -0.02102284 0.0014198155 -0.37567353 -0.0211217
          -0.004937883 -0.37673622 -0.022960434 -0.0031155252 -0.37723023 -0.023176782
          -0.0010161712 -0.37736347 -0.023453042 0.0012790175 -0.37682694 -0.023617202
          -0.009785326 -0.028388921 -0.030272147 -0.009920163 -0.023581967 -0.028916612
          -0.009734963 -0.019070124 -0.028258773 -0.008488564 -0.015342323 -0.028350974
          -0.005439806 -0.012887496 -0.029245565 -0.0067903893 -0.025827475 -0.026320938
          -0.006564557 -0.0216133 -0.02593591 -0.005688976 -0.01784786 -0.026300313
          -0.0034224854 -0.0150200855 -0.027466493 -0.0027990513 -0.02560113 -0.025351385
          -0.0022507028 -0.021974595 -0.025564594 -0.00072289445 -0.018950418 -0.026578968
          0.0013372606 -0.026793886 -0.02631154 0.0021699723 -0.023749849 -0.026750714
          0.004767119 -0.028489737 -0.028149456 0.005180033 -0.024284977 -0.028077876
          0.002468287 -0.019809311 -0.027519478 -0.00056152476 -0.01566949 -0.028002389
          -0.003420407 -0.012794153 -0.029358886 0.0053215674 -0.020180143 -0.02891293
          0.0020555723 -0.01619104 -0.029029414 -0.0015508343 -0.012933163 -0.030001525
          0.004629005 -0.016484166 -0.03048296 0.0003691111 -0.013203962 -0.031108873
          0.002539628 -0.013505981 -0.03261632 -0.009212927 -0.009644658 -0.039094616
          -0.008856075 -0.009545495 -0.03606514 -0.008301117 -0.010470288 -0.033334516
          -0.0072587845 -0.0117929755 -0.031021677 -0.01143497 -0.014326154 -0.03807828
          -0.011362541 -0.01418793 -0.03435304 -0.010476829 -0.01473534 -0.03107096
          -0.012062029 -0.019254895 -0.03582336 -0.011612726 -0.018988853 -0.031747334
          -0.011407637 -0.024064582 -0.03299845 -0.0019393262 -0.008821926 -0.03737233
          -0.0036634246 -0.008764843 -0.03512829 -0.0053698444 -0.009721672 -0.03298987
          -0.004900806 -0.006746955 -0.03979583 -0.0064933547 -0.0076103224 -0.036659606
          -0.0070802076 -0.007086167 -0.040249154
          <InformationKey name="L2_NORM_RANGE" location="vtkDataArray" length="2">
            <Value index="0">
              0.031491659176
            </Value>
            <Value index="1">
              0.38004732605
            </Value>
          </InformationKey>
        </DataArray>
      </Points>
      <Verts>
        <DataArray type="Int64" Name="connectivity" format="ascii" RangeMin="1e+299" RangeMax="-1e+299">
        </DataArray>
        <DataArray type="Int64" Name="offsets" format="ascii" RangeMin="1e+299" RangeMax="-1e+299">
        </DataArray>
      </Verts>
      <Lines>
        <DataArray type="Int64" Name="connectivity" format="ascii" RangeMin="1e+299" RangeMax="-1e+299">
        </DataArray>
        <DataArray type="Int64" Name="offsets" format="ascii" RangeMin="1e+299" RangeMax="-1e+299">
        </DataArray>
      </Lines>
      <Strips>
        <DataArray type="Int64" Name="connectivity" format="ascii" RangeMin="1e+299" RangeMax="-1e+299">
        </DataArray>
        <DataArray type="Int64" Name="offsets" format="ascii" RangeMin="1e+299" RangeMax="-1e+299">
        </DataArray>
      </Strips>
      <Polys>
        <DataArray type="Int64" Name="connectivity" format="ascii" RangeMin="0" RangeMax="726">
          6 1 0 6 7 1
          7 2 1 7 8 2
          8 3 2 8 9 3
          9 4 3 9 10 4
          10 5 4 10 11 5
          12 7 6 12 13 7
          13 8 7 13 14 8
          14 9 8 14 15 9
          15 10 9 15 16 10
          16 11 10 16 17 11
          18 13 12 18 19 13
          19 14 13 19 20 14
          20 15 14 20 21 15
          21 16 15 21 22 16
          22 17 16 22 23 17
          24 19 18 24 25 19
          25 20 19 25 26 20
          26 21 20 26 27 21
          27 22 21 27 28 22
          28 23 22 28 29 23
          30 25 24 30 31 25
          31 26 25 31 32 26
          32 27 26 32 33 27
          33 28 27 33 34 28
          34 29 28 34 35 29
          11 36 5 11 40 36
          40 37 36 40 41 37
          41 38 37 41 42 38
          42 39 38 42 43 39
          43 0 39 43 6 0
          17 40 11 17 44 40
          44 41 40 44 45 41
          45 42 41 45 46 42
          46 43 42 46 47 43
          47 6 43 47 12 6
          23 44 17 23 48 44
          48 45 44 48 49 45
          49 46 45 49 50 46
          50 47 46 50 51 47
          51 12 47 51 18 12
          29 48 23 29 52 48
          52 49 48 52 53 49
          53 50 49 53 54 50
          54 51 50 54 55 51
          55 18 51 55 24 18
          35 52 29 35 56 52
          56 53 52 56 57 53
          57 54 53 57 58 54
          58 55 54 58 59 55
          59 24 55 59 30 24
          60 56 35 60 61 56
          61 57 56 61 62 57
          62 58 57 62 63 58
          63 59 58 63 64 59
          64 30 59 64 65 30
          66 61 60 66 67 61
          67 62 61 67 68 62
          68 63 62 68 69 63
          69 64 63 69 70 64
          70 65 64 70 71 65
          72 67 66 72 73 67
          73 68 67 73 74 68
          74 69 68 74 75 69
          75 70 69 75 76 70
          76 71 70 76 77 71
          78 73 72 78 79 73
          79 74 73 79 80 74
          80 75 74 80 81 75
          81 76 75 81 82 76
          82 77 76 82 83 77
          84 79 78 84 85 79
          85 80 79 85 86 80
          86 81 80 86 87 81
          87 82 81 87 88 82
          88 83 82 88 89 83
          65 31 30 65 90 31
          90 32 31 90 91 32
          91 33 32 91 92 33
          92 34 33 92 93 34
          93 35 34 93 60 35
          71 90 65 71 94 90
          94 91 90 94 95 91
          95 92 91 95 96 92
          96 93 92 96 97 93
          97 60 93 97 66 60
          77 94 71 77 98 94
          98 95 94 98 99 95
          99 96 95 99 100 96
          100 97 96 100 101 97
          101 66 97 101 72 66
          83 98 77 83 102 98
          102 99 98 102 103 99
          103 100 99 103 104 100
          104 101 100 104 105 101
          105 72 101 105 78 72
          89 102 83 89 106 102
          106 103 102 106 107 103
          107 104 103 107 108 104
          108 105 104 108 109 105
          109 78 105 109 84 78
          116 111 110 116 117 111
          117 112 111 117 118 112
          118 113 112 118 119 113
          119 114 113 119 120 114
          120 115 114 120 121 115
          122 117 116 122 123 117
          123 118 117 123 124 118
          124 119 118 124 125 119
          125 120 119 125 126 120
          126 121 120 126 127 121
          128 123 122 128 129 123
          129 124 123 129 130 124
          130 125 124 130 131 125
          131 126 125 131 132 126
          132 127 126 132 133 127
          134 129 128 134 135 129
          135 130 129 135 136 130
          136 131 130 136 137 131
          137 132 131 137 138 132
          138 133 132 138 139 133
          0 135 134 0 1 135
          1 136 135 1 2 136
          2 137 136 2 3 137
          3 138 137 3 4 138
          4 139 138 4 5 139
          121 140 115 121 144 140
          144 141 140 144 145 141
          145 142 141 145 146 142
          146 143 142 146 147 143
          147 110 143 147 116 110
          127 144 121 127 148 144
          148 145 144 148 149 145
          149 146 145 149 150 146
          150 147 146 150 151 147
          151 116 147 151 122 116
          133 148 127 133 152 148
          152 149 148 152 153 149
          153 150 149 153 154 150
          154 151 150 154 155 151
          155 122 151 155 128 122
          139 152 133 139 156 152
          156 153 152 156 157 153
          157 154 153 157 158 154
          158 155 154 158 159 155
          159 128 155 159 134 128
          5 156 139 5 36 156
          36 157 156 36 37 157
          37 158 157 37 38 158
          38 159 158 38 39 159
          39 134 159 39 0 134
          160 114 115 160 161 114
          161 113 114 161 162 113
          162 112 113 162 163 112
          163 111 112 163 164 111
          164 110 111 164 165 110
          166 161 160 166 167 161
          167 162 161 167 168 162
          168 163 162 168 169 163
          169 164 163 169 170 164
          170 165 164 170 171 165
          172 167 166 172 173 167
          173 168 167 173 174 168
          174 169 168 174 175 169
          175 170 169 175 176 170
          176 171 170 176 177 171
          178 173 172 178 179 173
          179 174 173 179 180 174
          180 175 174 180 181 175
          181 176 175 181 182 176
          182 177 176 182 183 177
          184 179 178 184 185 179
          185 180 179 185 186 180
          186 181 180 186 187 181
          187 182 181 187 188 182
          188 183 182 188 189 183
          165 143 110 165 190 143
          190 142 143 190 191 142
          191 141 142 191 192 141
          192 140 141 192 193 140
          193 115 140 193 160 115
          171 190 165 171 194 190
          194 191 190 194 195 191
          195 192 191 195 196 192
          196 193 192 196 197 193
          197 160 193 197 166 160
          177 194 171 177 198 194
          198 195 194 198 199 195
          199 196 195 199 200 196
          200 197 196 200 201 197
          201 166 197 201 172 166
          183 198 177 183 202 198
          202 199 198 202 203 199
          203 200 199 203 204 200
          204 201 200 204 205 201
          205 172 201 205 178 172
          189 202 183 189 206 202
          206 203 202 206 207 203
          207 204 203 207 208 204
          208 205 204 208 209 205
          209 178 205 209 184 178
          210 206 189 210 211 206
          211 207 206 211 212 207
          212 208 207 212 213 208
          213 209 208 213 214 209
          214 184 209 214 215 184
          216 211 210 216 217 211
          217 212 211 217 218 212
          218 213 212 218 219 213
          219 214 213 219 220 214
          220 215 214 220 221 215
          222 217 216 222 223 217
          223 218 217 223 224 218
          224 219 218 224 225 219
          225 220 219 225 226 220
          226 221 220 226 227 221
          228 223 222 228 229 223
          229 224 223 229 230 224
          230 225 224 230 231 225
          231 226 225 231 232 226
          232 227 226 232 233 227
          234 229 228 234 235 229
          235 230 229 235 236 230
          236 231 230 236 237 231
          237 232 231 237 238 232
          238 233 232 238 239 233
          240 85 84 240 241 85
          241 86 85 241 242 86
          242 87 86 242 243 87
          243 88 87 243 244 88
          244 89 88 244 245 89
          246 241 240 246 247 241
          247 242 241 247 248 242
          248 243 242 248 249 243
          249 244 243 249 250 244
          250 245 244 250 251 245
          252 247 246 252 253 247
          253 248 247 253 254 248
          254 249 248 254 255 249
          255 250 249 255 256 250
          256 251 250 256 257 251
          258 253 252 258 259 253
          259 254 253 259 260 254
          260 255 254 260 261 255
          261 256 255 261 262 256
          262 257 256 262 263 257
          264 259 258 264 265 259
          265 260 259 265 266 260
          266 261 260 266 267 261
          267 262 261 267 268 262
          268 263 262 268 269 263
          245 106 89 245 270 106
          270 107 106 270 271 107
          271 108 107 271 272 108
          272 109 108 272 273 109
          273 84 109 273 240 84
          251 270 245 251 274 270
          274 271 270 274 275 271
          275 272 271 275 276 272
          276 273 272 276 277 273
          277 240 273 277 246 240
          257 274 251 257 278 274
          278 275 274 278 279 275
          279 276 275 279 280 276
          280 277 276 280 281 277
          281 246 277 281 252 246
          263 278 257 263 282 278
          282 279 278 282 283 279
          283 280 279 283 284 280
          284 281 280 284 285 281
          285 252 281 285 258 252
          269 282 263 269 286 282
          286 283 282 286 287 283
          287 284 283 287 288 284
          288 285 284 288 289 285
          289 258 285 289 264 258
          290 286 269 290 291 286
          291 287 286 291 292 287
          292 288 287 292 293 288
          293 289 288 293 294 289
          294 264 289 294 295 264
          296 291 290 296 297 291
          297 292 291 297 298 292
          298 293 292 298 299 293
          299 294 293 299 300 294
          300 295 294 300 301 295
          302 297 296 302 303 297
          303 298 297 303 304 298
          304 299 298 304 305 299
          305 300 299 305 306 300
          306 301 300 306 307 301
          308 303 302 308 309 303
          309 304 303 309 310 304
          310 305 304 310 311 305
          311 306 305 311 312 306
          312 307 306 312 313 307
          314 309 308 314 315 309
          315 310 309 315 316 310
          316 311 310 316 317 311
          317 312 311 317 318 312
          318 313 312 318 319 313
          308 320 314 308 325 320
          325 321 320 325 326 321
          326 322 321 326 327 322
          327 323 322 327 328 323
          328 324 323 302 325 308
          302 329 325 329 326 325
          329 330 326 330 327 326
          330 331 327 331 328 327
          296 329 302 296 332 329
          332 330 329 332 333 330
          333 331 330 290 332 296
          290 334 332 334 333 332
          269 334 290 328 335 324
          328 339 335 339 336 335
          339 340 336 340 337 336
          340 341 337 341 338 337
          341 265 338 265 264 338
          331 339 328 331 342 339
          342 340 339 342 343 340
          343 341 340 343 266 341
          266 265 341 333 342 331
          333 344 342 344 343 342
          344 267 343 267 266 343
          334 344 333 334 268 344
          268 267 344 269 268 334
          295 338 264 295 345 338
          345 337 338 345 346 337
          346 336 337 346 347 336
          347 335 336 347 348 335
          348 324 335 301 345 295
          301 349 345 349 346 345
          349 350 346 350 347 346
          350 351 347 351 348 347
          307 349 301 307 352 349
          352 350 349 352 353 350
          353 351 350 313 352 307
          313 354 352 354 353 352
          319 354 313 318 355 319
          318 360 355 360 356 355
          360 361 356 361 357 356
          361 362 357 362 358 357
          362 363 358 363 359 358
          317 360 318 317 364 360
          364 361 360 364 365 361
          365 362 361 365 366 362
          366 363 362 316 364 317
          316 367 364 367 365 364
          367 368 365 368 366 365
          315 367 316 315 369 367
          369 368 367 314 369 315
          348 370 324 348 375 370
          375 371 370 375 376 371
          376 372 371 376 377 372
          377 373 372 377 378 373
          378 374 373 351 375 348
          351 379 375 379 376 375
          379 380 376 380 377 376
          380 381 377 381 378 377
          353 379 351 353 382 379
          382 380 379 382 383 380
          383 381 380 354 382 353
          354 384 382 384 383 382
          319 384 354 320 385 314
          320 389 385 389 386 385
          389 390 386 390 387 386
          390 391 387 391 388 387
          391 373 388 373 374 388
          321 389 320 321 392 389
          392 390 389 392 393 390
          393 391 390 393 372 391
          372 373 391 322 392 321
          322 394 392 394 393 392
          394 371 393 371 372 393
          323 394 322 323 370 394
          370 371 394 324 370 323
          355 384 319 355 395 384
          395 383 384 395 396 383
          396 381 383 396 397 381
          397 378 381 397 398 378
          398 374 378 356 395 355
          356 399 395 399 396 395
          399 400 396 400 397 396
          400 401 397 401 398 397
          357 399 356 357 402 399
          402 400 399 402 403 400
          403 401 400 358 402 357
          358 404 402 404 403 402
          359 404 358 363 405 359
          363 410 405 410 406 405
          410 411 406 411 407 406
          411 412 407 412 408 407
          412 413 408 413 409 408
          366 410 363 366 414 410
          414 411 410 414 415 411
          415 412 411 415 416 412
          416 413 412 368 414 366
          368 417 414 417 415 414
          417 418 415 418 416 415
          369 417 368 369 419 417
          419 418 417 314 419 369
          413 420 409 413 425 420
          425 421 420 425 426 421
          426 422 421 426 427 422
          427 423 422 427 428 423
          428 424 423 416 425 413
          416 429 425 429 426 425
          429 430 426 430 427 426
          430 431 427 431 428 427
          418 429 416 418 432 429
          432 430 429 432 433 430
          433 431 430 419 432 418
          419 434 432 434 433 432
          314 434 419 385 434 314
          385 435 434 435 433 434
          435 436 433 436 431 433
          436 437 431 437 428 431
          437 438 428 438 424 428
          386 435 385 386 439 435
          439 436 435 439 440 436
          440 437 436 440 441 437
          441 438 437 387 439 386
          387 442 439 442 440 439
          442 443 440 443 441 440
          388 442 387 388 444 442
          444 443 442 374 444 388
          438 445 424 438 450 445
          450 446 445 450 451 446
          451 447 446 451 452 447
          452 448 447 452 453 448
          453 449 448 441 450 438
          441 454 450 454 451 450
          454 455 451 455 452 451
          455 456 452 456 453 452
          443 454 441 443 457 454
          457 455 454 457 458 455
          458 456 455 444 457 443
          444 459 457 459 458 457
          374 459 444 420 460 409
          420 465 460 465 461 460
          465 466 461 466 462 461
          466 467 462 467 463 462
          467 468 463 468 464 463
          421 465 420 421 469 465
          469 466 465 469 470 466
          470 467 466 470 471 467
          471 468 467 422 469 421
          422 472 469 472 470 469
          472 473 470 473 471 470
          423 472 422 423 474 472
          474 473 472 424 474 423
          405 475 359 405 479 475
          479 476 475 479 480 476
          480 477 476 480 481 477
          481 478 477 481 463 478
          463 464 478 406 479 405
          406 482 479 482 480 479
          482 483 480 483 481 480
          483 462 481 462 463 481
          407 482 406 407 484 482
          484 483 482 484 461 483
          461 462 483 408 484 407
          408 460 484 460 461 484
          409 460 408 468 485 464
          468 489 485 489 486 485
          489 490 486 490 487 486
          490 491 487 491 488 487
          491 448 488 448 449 488
          471 489 468 471 492 489
          492 490 489 492 493 490
          493 491 490 493 447 491
          447 448 491 473 492 471
          473 494 492 494 493 492
          494 446 493 446 447 493
          474 494 473 474 445 494
          445 446 494 424 445 474
          188 495 189 188 500 495
          500 496 495 500 501 496
          501 497 496 501 502 497
          502 498 497 502 503 498
          503 499 498 187 500 188
          187 504 500 504 501 500
          504 505 501 505 502 501
          505 506 502 506 503 502
          186 504 187 186 507 504
          507 505 504 507 508 505
          508 506 505 185 507 186
          185 509 507 509 508 507
          184 509 185 228 510 234
          228 514 510 514 511 510
          514 515 511 515 512 511
          515 516 512 516 513 512
          516 498 513 498 499 513
          222 514 228 222 517 514
          517 515 514 517 518 515
          518 516 515 518 497 516
          497 498 516 216 517 222
          216 519 517 519 518 517
          519 496 518 496 497 518
          210 519 216 210 495 519
          495 496 519 189 495 210
          215 509 184 215 520 509
          520 508 509 520 521 508
          521 506 508 521 522 506
          522 503 506 522 523 503
          523 499 503 221 520 215
          221 524 520 524 521 520
          524 525 521 525 522 521
          525 526 522 526 523 522
          227 524 221 227 527 524
          527 525 524 527 528 525
          528 526 525 233 527 227
          233 529 527 529 528 527
          239 529 233 523 530 499
          523 535 530 535 531 530
          535 536 531 536 532 531
          536 537 532 537 533 532
          537 538 533 538 534 533
          538 539 534 526 535 523
          526 540 535 540 536 535
          540 541 536 541 537 536
          541 542 537 542 538 537
          542 543 538 543 539 538
          543 544 539 528 540 526
          528 545 540 545 541 540
          545 546 541 546 542 541
          546 547 542 547 543 542
          547 548 543 548 544 543
          548 549 544 529 545 528
          529 550 545 550 546 545
          550 551 546 551 547 546
          551 552 547 552 548 547
          552 553 548 553 549 548
          553 554 549 239 550 529
          239 555 550 555 551 550
          555 556 551 556 552 551
          556 557 552 557 553 552
          557 558 553 558 554 553
          558 559 554 238 555 239
          238 560 555 560 556 555
          560 561 556 561 557 556
          561 562 557 562 558 557
          562 563 558 563 559 558
          563 564 559 237 560 238
          237 565 560 565 561 560
          565 566 561 566 562 561
          566 567 562 567 563 562
          567 568 563 568 564 563
          568 569 564 236 565 237
          236 570 565 570 566 565
          570 571 566 571 567 566
          571 572 567 572 568 567
          572 573 568 573 569 568
          573 574 569 235 570 236
          235 575 570 575 571 570
          575 576 571 576 572 571
          576 577 572 577 573 572
          577 578 573 578 574 573
          578 579 574 234 575 235
          234 580 575 580 576 575
          580 581 576 581 577 576
          581 582 577 582 578 577
          582 583 578 583 579 578
          583 584 579 510 585 234
          510 590 585 590 586 585
          590 591 586 591 587 586
          591 592 587 592 588 587
          592 593 588 593 589 588
          593 594 589 511 590 510
          511 595 590 595 591 590
          595 596 591 596 592 591
          596 597 592 597 593 592
          597 598 593 598 594 593
          598 599 594 512 595 511
          512 600 595 600 596 595
          600 601 596 601 597 596
          601 602 597 602 598 597
          602 603 598 603 599 598
          603 604 599 513 600 512
          513 605 600 605 601 600
          605 606 601 606 602 601
          606 607 602 607 603 602
          607 608 603 608 604 603
          608 609 604 499 605 513
          499 610 605 610 606 605
          610 611 606 611 607 606
          611 612 607 612 608 607
          612 613 608 613 609 608
          613 614 609 530 610 499
          530 615 610 615 611 610
          615 616 611 616 612 611
          616 617 612 617 613 612
          617 618 613 618 614 613
          531 615 530 531 619 615
          619 616 615 619 620 616
          620 617 616 620 621 617
          621 618 617 532 619 531
          532 622 619 622 620 619
          622 623 620 623 621 620
          533 622 532 533 624 622
          624 623 622 534 624 533
          585 580 234 585 625 580
          625 581 580 625 626 581
          626 582 581 626 627 582
          627 583 582 627 628 583
          628 584 583 586 625 585
          586 629 625 629 626 625
          629 630 626 630 627 626
          630 631 627 631 628 627
          587 629 586 587 632 629
          632 630 629 632 633 630
          633 631 630 588 632 587
          588 634 632 634 633 632
          589 634 588 564 635 559
          564 640 635 640 636 635
          640 641 636 641 637 636
          641 642 637 642 638 637
          642 643 638 643 639 638
          569 640 564 569 644 640
          644 641 640 644 645 641
          645 642 641 645 646 642
          646 643 642 574 644 569
          574 647 644 647 645 644
          647 648 645 648 646 645
          579 647 574 579 649 647
          649 648 647 584 649 579
          643 650 639 643 654 650
          654 651 650 654 655 651
          655 652 651 655 656 652
          656 653 652 656 634 653
          634 589 653 646 654 643
          646 657 654 657 655 654
          657 658 655 658 656 655
          658 633 656 633 634 656
          648 657 646 648 659 657
          659 658 657 659 631 658
          631 633 658 649 659 648
          649 628 659 628 631 659
          584 628 649 650 660 639
          650 664 660 664 661 660
          664 665 661 665 662 661
          665 666 662 666 663 662
          666 609 663 609 614 663
          651 664 650 651 667 664
          667 665 664 667 668 665
          668 666 665 668 604 666
          604 609 666 652 667 651
          652 669 667 669 668 667
          669 599 668 599 604 668
          653 669 652 653 594 669
          594 599 669 589 594 653
          635 554 559 635 670 554
          670 549 554 670 671 549
          671 544 549 671 672 544
          672 539 544 672 673 539
          673 534 539 673 624 534
          636 670 635 636 674 670
          674 671 670 674 675 671
          675 672 671 675 676 672
          676 673 672 676 677 673
          677 624 673 677 623 624
          637 674 636 637 678 674
          678 675 674 678 679 675
          679 676 675 679 680 676
          680 677 676 680 681 677
          681 623 677 681 621 623
          638 678 637 638 682 678
          682 679 678 682 683 679
          683 680 679 683 684 680
          684 681 680 684 685 681
          685 621 681 685 618 621
          639 682 638 639 660 682
          660 683 682 660 661 683
          661 684 683 661 662 684
          662 685 684 662 663 685
          663 618 685 663 614 618
          398 686 374 398 691 686
          691 687 686 691 692 687
          692 688 687 692 693 688
          693 689 688 693 694 689
          694 690 689 401 691 398
          401 695 691 695 692 691
          695 696 692 696 693 692
          696 697 693 697 694 693
          403 695 401 403 698 695
          698 696 695 698 699 696
          699 697 696 404 698 403
          404 700 698 700 699 698
          359 700 404 475 700 359
          475 701 700 701 699 700
          701 702 699 702 697 699
          702 703 697 703 694 697
          703 704 694 704 690 694
          476 701 475 476 705 701
          705 702 701 705 706 702
          706 703 702 706 707 703
          707 704 703 477 705 476
          477 708 705 708 706 705
          708 709 706 709 707 706
          478 708 477 478 710 708
          710 709 708 464 710 478
          453 711 449 453 715 711
          715 712 711 715 716 712
          716 713 712 716 717 713
          717 714 713 717 689 714
          689 690 714 456 715 453
          456 718 715 718 716 715
          718 719 716 719 717 716
          719 688 717 688 689 717
          458 718 456 458 720 718
          720 719 718 720 687 719
          687 688 719 459 720 458
          459 686 720 686 687 720
          374 686 459 485 710 464
          485 721 710 721 709 710
          721 722 709 722 707 709
          722 723 707 723 704 707
          723 714 704 714 690 704
          486 721 485 486 724 721
          724 722 721 724 725 722
          725 723 722 725 713 723
          713 714 723 487 724 486
          487 726 724 726 725 724
          726 712 725 712 713 725
          488 726 487 488 711 726
          711 712 726 449 711 488
        </DataArray>
        <DataArray type="Int64" Name="offsets" format="ascii" RangeMin="3" RangeMax="4350">
          3 6 9 12 15 18
          21 24 27 30 33 36
          39 42 45 48 51 54
          57 60 63 66 69 72
          75 78 81 84 87 90
          93 96 99 102 105 108
          111 114 117 120 123 126
          129 132 135 138 141 144
          147 150 153 156 159 162
          165 168 171 174 177 180
          183 186 189 192 195 198
          201 204 207 210 213 216
          219 222 225 228 231 234
          237 240 243 246 249 252
          255 258 261 264 267 270
          273 276 279 282 285 288
          291 294 297 300 303 306
          309 312 315 318 321 324
          327 330 333 336 339 342
          345 348 351 354 357 360
          363 366 369 372 375 378
          381 384 387 390 393 396
          399 402 405 408 411 414
          417 420 423 426 429 432
          435 438 441 444 447 450
          453 456 459 462 465 468
          471 474 477 480 483 486
          489 492 495 498 501 504
          507 510 513 516 519 522
          525 528 531 534 537 540
          543 546 549 552 555 558
          561 564 567 570 573 576
          579 582 585 588 591 594
          597 600 603 606 609 612
          615 618 621 624 627 630
          633 636 639 642 645 648
          651 654 657 660 663 666
          669 672 675 678 681 684
          687 690 693 696 699 702
          705 708 711 714 717 720
          723 726 729 732 735 738
          741 744 747 750 753 756
          759 762 765 768 771 774
          777 780 783 786 789 792
          795 798 801 804 807 810
          813 816 819 822 825 828
          831 834 837 840 843 846
          849 852 855 858 861 864
          867 870 873 876 879 882
          885 888 891 894 897 900
          903 906 909 912 915 918
          921 924 927 930 933 936
          939 942 945 948 951 954
          957 960 963 966 969 972
          975 978 981 984 987 990
          993 996 999 1002 1005 1008
          1011 1014 1017 1020 1023 1026
          1029 1032 1035 1038 1041 1044
          1047 1050 1053 1056 1059 1062
          1065 1068 1071 1074 1077 1080
          1083 1086 1089 1092 1095 1098
          1101 1104 1107 1110 1113 1116
          1119 1122 1125 1128 1131 1134
          1137 1140 1143 1146 1149 1152
          1155 1158 1161 1164 1167 1170
          1173 1176 1179 1182 1185 1188
          1191 1194 1197 1200 1203 1206
          1209 1212 1215 1218 1221 1224
          1227 1230 1233 1236 1239 1242
          1245 1248 1251 1254 1257 1260
          1263 1266 1269 1272 1275 1278
          1281 1284 1287 1290 1293 1296
          1299 1302 1305 1308 1311 1314
          1317 1320 1323 1326 1329 1332
          1335 1338 1341 1344 1347 1350
          1353 1356 1359 1362 1365 1368
          1371 1374 1377 1380 1383 1386
          1389 1392 1395 1398 1401 1404
          1407 1410 1413 1416 1419 1422
          1425 1428 1431 1434 1437 1440
          1443 1446 1449 1452 1455 1458
          1461 1464 1467 1470 1473 1476
          1479 1482 1485 1488 1491 1494
          1497 1500 1503 1506 1509 1512
          1515 1518 1521 1524 1527 1530
          1533 1536 1539 1542 1545 1548
          1551 1554 1557 1560 1563 1566
          1569 1572 1575 1578 1581 1584
          1587 1590 1593 1596 1599 1602
          1605 1608 1611 1614 1617 1620
          1623 1626 1629 1632 1635 1638
          1641 1644 1647 1650 1653 1656
          1659 1662 1665 1668 1671 1674
          1677 1680 1683 1686 1689 1692
          1695 1698 1701 1704 1707 1710
          1713 1716 1719 1722 1725 1728
          1731 1734 1737 1740 1743 1746
          1749 1752 1755 1758 1761 1764
          1767 1770 1773 1776 1779 1782
          1785 1788 1791 1794 1797 1800
          1803 1806 1809 1812 1815 1818
          1821 1824 1827 1830 1833 1836
          1839 1842 1845 1848 1851 1854
          1857 1860 1863 1866 1869 1872
          1875 1878 1881 1884 1887 1890
          1893 1896 1899 1902 1905 1908
          1911 1914 1917 1920 1923 1926
          1929 1932 1935 1938 1941 1944
          1947 1950 1953 1956 1959 1962
          1965 1968 1971 1974 1977 1980
          1983 1986 1989 1992 1995 1998
          2001 2004 2007 2010 2013 2016
          2019 2022 2025 2028 2031 2034
          2037 2040 2043 2046 2049 2052
          2055 2058 2061 2064 2067 2070
          2073 2076 2079 2082 2085 2088
          2091 2094 2097 2100 2103 2106
          2109 2112 2115 2118 2121 2124
          2127 2130 2133 2136 2139 2142
          2145 2148 2151 2154 2157 2160
          2163 2166 2169 2172 2175 2178
          2181 2184 2187 2190 2193 2196
          2199 2202 2205 2208 2211 2214
          2217 2220 2223 2226 2229 2232
          2235 2238 2241 2244 2247 2250
          2253 2256 2259 2262 2265 2268
          2271 2274 2277 2280 2283 2286
          2289 2292 2295 2298 2301 2304
          2307 2310 2313 2316 2319 2322
          2325 2328 2331 2334 2337 2340
          2343 2346 2349 2352 2355 2358
          2361 2364 2367 2370 2373 2376
          2379 2382 2385 2388 2391 2394
          2397 2400 2403 2406 2409 2412
          2415 2418 2421 2424 2427 2430
          2433 2436 2439 2442 2445 2448
          2451 2454 2457 2460 2463 2466
          2469 2472 2475 2478 2481 2484
          2487 2490 2493 2496 2499 2502
          2505 2508 2511 2514 2517 2520
          2523 2526 2529 2532 2535 2538
          2541 2544 2547 2550 2553 2556
          2559 2562 2565 2568 2571 2574
          2577 2580 2583 2586 2589 2592
          2595 2598 2601 2604 2607 2610
          2613 2616 2619 2622 2625 2628
          2631 2634 2637 2640 2643 2646
          2649 2652 2655 2658 2661 2664
          2667 2670 2673 2676 2679 2682
          2685 2688 2691 2694 2697 2700
          2703 2706 2709 2712 2715 2718
          2721 2724 2727 2730 2733 2736
          2739 2742 2745 2748 2751 2754
          2757 2760 2763 2766 2769 2772
          2775 2778 2781 2784 2787 2790
          2793 2796 2799 2802 2805 2808
          2811 2814 2817 2820 2823 2826
          2829 2832 2835 2838 2841 2844
          2847 2850 2853 2856 2859 2862
          2865 2868 2871 2874 2877 2880
          2883 2886 2889 2892 2895 2898
          2901 2904 2907 2910 2913 2916
          2919 2922 2925 2928 2931 2934
          2937 2940 2943 2946 2949 2952
          2955 2958 2961 2964 2967 2970
          2973 2976 2979 2982 2985 2988
          2991 2994 2997 3000 3003 3006
          3009 3012 3015 3018 3021 3024
          3027 3030 3033 3036 3039 3042
          3045 3048 3051 3054 3057 3060
          3063 3066 3069 3072 3075 3078
          3081 3084 3087 3090 3093 3096
          3099 3102 3105 3108 3111 3114
          3117 3120 3123 3126 3129 3132
          3135 3138 3141 3144 3147 3150
          3153 3156 3159 3162 3165 3168
          3171 3174 3177 3180 3183 3186
          3189 3192 3195 3198 3201 3204
          3207 3210 3213 3216 3219 3222
          3225 3228 3231 3234 3237 3240
          3243 3246 3249 3252 3255 3258
          3261 3264 3267 3270 3273 3276
          3279 3282 3285 3288 3291 3294
          3297 3300 3303 3306 3309 3312
          3315 3318 3321 3324 3327 3330
          3333 3336 3339 3342 3345 3348
          3351 3354 3357 3360 3363 3366
          3369 3372 3375 3378 3381 3384
          3387 3390 3393 3396 3399 3402
          3405 3408 3411 3414 3417 3420
          3423 3426 3429 3432 3435 3438
          3441 3444 3447 3450 3453 3456
          3459 3462 3465 3468 3471 3474
          3477 3480 3483 3486 3489 3492
          3495 3498 3501 3504 3507 3510
          3513 3516 3519 3522 3525 3528
          3531 3534 3537 3540 3543 3546
          3549 3552 3555 3558 3561 3564
          3567 3570 3573 3576 3579 3582
          3585 3588 3591 3594 3597 3600
          3603 3606 3609 3612 3615 3618
          3621 3624 3627 3630 3633 3636
          3639 3642 3645 3648 3651 3654
          3657 3660 3663 3666 3669 3672
          3675 3678 3681 3684 3687 3690
          3693 3696 3699 3702 3705 3708
          3711 3714 3717 3720 3723 3726
          3729 3732 3735 3738 3741 3744
          3747 3750 3753 3756 3759 3762
          3765 3768 3771 3774 3777 3780
          3783 3786 3789 3792 3795 3798
          3801 3804 3807 3810 3813 3816
          3819 3822 3825 3828 3831 3834
          3837 3840 3843 3846 3849 3852
          3855 3858 3861 3864 3867 3870
          3873 3876 3879 3882 3885 3888
          3891 3894 3897 3900 3903 3906
          3909 3912 3915 3918 3921 3924
          3927 3930 3933 3936 3939 3942
          3945 3948 3951 3954 3957 3960
          3963 3966 3969 3972 3975 3978
          3981 3984 3987 3990 3993 3996
          3999 4002 4005 4008 4011 4014
          4017 4020 4023 4026 4029 4032
          4035 4038 4041 4044 4047 4050
          4053 4056 4059 4062 4065 4068
          4071 4074 4077 4080 4083 4086
          4089 4092 4095 4098 4101 4104
          4107 4110 4113 4116 4119 4122
          4125 4128 4131 4134 4137 4140
          4143 4146 4149 4152 4155 4158
          4161 4164 4167 4170 4173 4176
          4179 4182 4185 4188 4191 4194
          4197 4200 4203 4206 4209 4212
          4215 4218 4221 4224 4227 4230
          4233 4236 4239 4242 4245 4248
          4251 4254 4257 4260 4263 4266
          4269 4272 4275 4278 4281 4284
          4287 4290 4293 4296 4299 4302
          4305 4308 4311 4314 4317 4320
          4323 4326 4329 4332 4335 4338
          4341 4344 4347 4350
        </DataArray>
      </Polys>
    </Piece>
  </PolyData>
</VTKFile>
